*** Darwin 1x6 ***
Turn = 0.
  012345
0 rhfh.h

Turn = 3.
  012345
0 rhfhh.

Turn = 6.
  012345
0 rrfhh.

*** Darwin 1x2 ***
Turn = 0.
  01
0 tf

Turn = 2.
  01
0 tf

Turn = 4.
  01
0 tt

*** Darwin 9x1 ***
Turn = 0.
  0
0 t
1 r
2 r
3 .
4 .
5 r
6 f
7 t
8 r

Turn = 3.
  0
0 r
1 r
2 r
3 .
4 .
5 r
6 r
7 r
8 r

Turn = 6.
  0
0 r
1 .
2 .
3 r
4 r
5 r
6 r
7 r
8 r

*** Darwin 8x3 ***
Turn = 0.
  012
0 ...
1 hh.
2 f.t
3 .t.
4 r.t
5 ..h
6 ...
7 ...

Turn = 5.
  012
0 h..
1 r.t
2 .tr
3 .t.
4 ..t
5 ..t
6 ...
7 ...

*** Darwin 8x5 ***
Turn = 0.
  01234
0 .....
1 .....
2 .....
3 .....
4 .....
5 .....
6 f....
7 .....

*** Darwin 9x3 ***
Turn = 0.
  012
0 ...
1 ...
2 .r.
3 ...
4 ...
5 ...
6 ...
7 ...
8 ...

*** Darwin 7x3 ***
Turn = 0.
  012
0 ..r
1 ...
2 .f.
3 ..f
4 h..
5 .h.
6 ...

*** Darwin 7x6 ***
Turn = 0.
  012345
0 ......
1 ......
2 ......
3 ......
4 ......
5 h.....
6 ......

Turn = 2.
  012345
0 ......
1 ......
2 ......
3 ......
4 ......
5 ..h...
6 ......

Turn = 4.
  012345
0 ......
1 ......
2 ......
3 ......
4 ......
5 ....h.
6 ......

*** Darwin 7x6 ***
Turn = 0.
  012345
0 ..t.r.
1 .t....
2 ......
3 t.f...
4 ......
5 ....r.
6 ......

Turn = 5.
  012345
0 ..t...
1 .t....
2 ......
3 t.f..r
4 ......
5 r.....
6 ......

*** Darwin 1x5 ***
Turn = 0.
  01234
0 rh..h

Turn = 4.
  01234
0 rh..h

*** Darwin 1x3 ***
Turn = 0.
  012
0 thh

Turn = 1.
  012
0 thh

*** Darwin 10x10 ***
Turn = 0.
  0123456789
0 ..........
1 ..........
2 ..........
3 ..........
4 ..........
5 ...r...t..
6 ......r...
7 .f........
8 ..t.......
9 .........r

Turn = 2.
  0123456789
0 ..........
1 ..........
2 ..........
3 ..........
4 ..........
5 .......t..
6 ....r.....
7 .f.r.....r
8 ..t.......
9 ..........

Turn = 4.
  0123456789
0 ..........
1 ..........
2 ..........
3 ..........
4 ..........
5 .......t.r
6 ..r.......
7 .f........
8 ..t.......
9 ...r......

*** Darwin 9x5 ***
Turn = 0.
  01234
0 .....
1 .....
2 .ff..
3 .....
4 ...r.
5 .....
6 .....
7 tf...
8 .....

Turn = 2.
  01234
0 .....
1 .....
2 .ff..
3 .....
4 .....
5 .....
6 ...r.
7 tf...
8 .....

Turn = 4.
  01234
0 .....
1 .....
2 .ff..
3 .....
4 .....
5 .....
6 .....
7 tt...
8 ...r.

Turn = 6.
  01234
0 .....
1 .....
2 .ff..
3 .....
4 .....
5 .....
6 .....
7 tt...
8 ..r..

*** Darwin 4x2 ***
Turn = 0.
  01
0 tt
1 t.
2 fh
3 ..

Turn = 2.
  01
0 tt
1 t.
2 fh
3 ..

Turn = 4.
  01
0 tt
1 t.
2 th
3 ..

Turn = 6.
  01
0 tt
1 t.
2 tt
3 ..

Turn = 8.
  01
0 tt
1 t.
2 tt
3 ..

Turn = 10.
  01
0 tt
1 t.
2 tt
3 ..

*** Darwin 8x5 ***
Turn = 0.
  01234
0 .hh..
1 f....
2 .....
3 ..f..
4 ...tf
5 .t...
6 h....
7 h....

Turn = 5.
  01234
0 .....
1 f....
2 ..h..
3 ..f..
4 .t.tt
5 .t...
6 .t...
7 h....

*** Darwin 9x5 ***
Turn = 0.
  01234
0 .....
1 .tt..
2 .....
3 .....
4 r....
5 .....
6 .....
7 .....
8 .f.f.

Turn = 2.
  01234
0 .....
1 .tt..
2 .....
3 r....
4 .....
5 .....
6 .....
7 .....
8 .f.f.

*** Darwin 3x7 ***
Turn = 0.
  0123456
0 r....f.
1 .r....r
2 .r....r

Turn = 5.
  0123456
0 ...rr.r
1 .r.....
2 r.r....

*** Darwin 2x1 ***
Turn = 0.
  0
0 .
1 t

Turn = 1.
  0
0 .
1 t

Turn = 2.
  0
0 .
1 t

Turn = 3.
  0
0 .
1 t

Turn = 4.
  0
0 .
1 t

Turn = 5.
  0
0 .
1 t

*** Darwin 10x8 ***
Turn = 0.
  01234567
0 ........
1 h.......
2 ........
3 ........
4 ..r.....
5 ........
6 ..r.....
7 ....f...
8 ......r.
9 ....r...

Turn = 2.
  01234567
0 ........
1 h.......
2 ........
3 ........
4 r.......
5 ........
6 r.......
7 ....f...
8 .......r
9 ..r.....

Turn = 4.
  01234567
0 ........
1 h.......
2 ........
3 ........
4 ........
5 r.......
6 r.......
7 ....f...
8 ........
9 r......r

*** Darwin 3x5 ***
Turn = 0.
  01234
0 hf...
1 fhr.r
2 .h...

Turn = 3.
  01234
0 hf.r.
1 fh...
2 ...hr

*** Darwin 6x7 ***
Turn = 0.
  0123456
0 .hrr...
1 .......
2 ..ht...
3 r......
4 .....r.
5 .......

*** Darwin 2x6 ***
Turn = 0.
  012345
0 ......
1 ....r.

Turn = 2.
  012345
0 ......
1 ...r..

Turn = 4.
  012345
0 ......
1 .r....

Turn = 6.
  012345
0 ......
1 r.....

*** Darwin 3x2 ***
Turn = 0.
  01
0 hf
1 .r
2 .r

*** Darwin 8x9 ***
Turn = 0.
  012345678
0 ........r
1 .........
2 .........
3 ........t
4 .....t...
5 .........
6 t........
7 .........

Turn = 4.
  012345678
0 ....r....
1 .........
2 .........
3 ........t
4 .....t...
5 .........
6 t........
7 .........

Turn = 8.
  012345678
0 r........
1 .........
2 .........
3 ........t
4 .....t...
5 .........
6 t........
7 .........

*** Darwin 3x3 ***
Turn = 0.
  012
0 tfr
1 rr.
2 ..h

Turn = 4.
  012
0 rrr
1 t..
2 tr.

*** Darwin 3x6 ***
Turn = 0.
  012345
0 ......
1 ......
2 ....r.

Turn = 1.
  012345
0 ......
1 ......
2 .....r

Turn = 2.
  012345
0 ......
1 ......
2 .....r

Turn = 3.
  012345
0 ......
1 ......
2 .....r
