20

50 41
12
r 20 15 n
t 0 0 e
r 46 19 s
h 16 15 w
h 11 17 e
h 7 38 s
t 21 18 e
f 3 34 e
t 21 38 w
r 22 23 w
r 30 10 e
f 2 12 e
1221 42

10 84
6
t 7 33 e
r 1 0 w
f 6 57 n
t 9 69 n
f 5 5 s
t 9 81 e
1140 28

115 75
11
h 37 23 e
t 0 72 n
r 6 62 w
r 101 69 w
h 55 50 w
t 40 41 s
r 45 26 n
t 40 0 n
h 91 2 e
r 1 17 e
f 30 27 e
259 47

76 59
6
r 59 0 s
r 5 49 n
t 69 18 w
t 51 11 e
f 74 14 e
f 39 56 w
718 182

114 155
12
h 70 9 e
t 98 82 s
f 84 18 s
r 9 54 s
r 32 12 e
r 100 91 w
r 7 19 n
t 24 135 e
h 79 24 e
h 98 73 s
f 82 27 w
r 9 142 w
83 3

30 58
6
h 18 4 n
f 0 57 w
f 23 44 s
f 21 44 n
r 1 16 n
t 11 19 e
390 49

3 27
5
r 0 2 s
h 2 25 n
f 1 1 s
f 0 17 s
t 1 26 e
190 18

155 101
2
f 90 2 e
r 40 24 w
77 27

117 120
5
r 65 76 n
t 90 73 e
h 67 35 s
f 45 54 w
r 20 119 w
928 70

64 92
6
r 9 84 n
t 5 90 n
r 12 32 e
r 53 61 w
f 43 32 n
r 5 72 e
334 133

39 175
7
f 31 52 n
t 31 50 e
r 11 48 w
r 9 12 n
r 1 173 s
t 0 120 n
h 29 78 n
490 7

24 49
1
t 20 39 w
625 166

17 145
2
r 11 142 w
t 2 19 w
78 18

96 86
5
f 12 80 w
r 80 35 w
r 81 34 e
r 8 3 w
r 42 24 s
11 42

150 17
15
t 30 1 e
f 120 6 e
f 58 2 w
h 70 14 n
r 18 15 w
h 122 6 s
r 112 7 s
r 59 12 w
t 51 16 n
f 4 4 e
h 2 5 w
h 11 1 w
h 8 0 e
t 115 0 w
t 51 3 e
228 12

119 113
20
r 118 101 e
f 12 101 s
f 26 0 e
t 37 1 e
h 16 72 e
r 117 44 w
h 108 77 w
r 64 63 n
t 59 7 w
r 38 25 e
t 12 43 n
r 0 52 n
r 11 84 w
t 1 109 n
t 75 101 w
t 29 35 s
h 47 112 s
r 36 35 s
t 114 35 s
h 66 111 w
102 7

1 172
4
h 0 12 w
t 0 37 n
t 0 79 e
r 0 125 n
37 2

52 17
3
f 36 1 w
f 48 10 n
r 21 4 n
67 20

187 162
5
f 36 66 e
r 154 110 s
f 126 129 n
h 68 92 w
h 141 69 e
102 12

189 69
8
r 166 22 s
h 187 2 n
h 2 60 w
h 45 47 n
h 167 0 w
h 163 33 e
t 105 11 w
t 10 1 w
40 73
