25

15 47
2
t 10 11 s
h 12 30 w
9 2

49 23
3
f 39 19 w
r 24 3 n
h 9 13 e
2 10

13 7
3
h 9 4 n
t 11 3 s
t 5 6 s
8 10

17 17
4
r 5 3 n
f 11 2 n
t 7 14 e
t 5 7 n
8 5

41 35
7
h 15 4 s
t 22 3 n
f 8 15 n
t 26 6 s
f 16 7 w
t 37 16 n
f 15 20 s
3 3

16 24
2
r 1 6 w
r 15 7 n
17 6

12 13
8
t 4 2 w
r 2 10 s
r 5 10 n
r 9 10 s
h 10 1 w
f 11 4 e
r 5 2 w
f 5 12 s
7 6

5 29
9
r 2 23 n
h 1 27 s
h 0 16 n
r 1 10 n
r 2 17 n
f 2 3 n
r 3 16 w
h 3 10 w
h 1 21 e
10 5

31 46
4
r 29 16 w
h 1 37 n
t 15 35 n
f 12 10 w
17 1

12 45
3
h 9 23 s
r 7 7 w
f 6 1 s
13 5

6 40
3
f 1 33 e
h 3 19 w
t 1 24 e
17 7

48 21
5
h 13 13 e
f 38 6 s
t 43 2 s
r 25 12 s
f 40 19 w
13 9

33 29
4
h 30 7 n
f 1 7 e
r 16 21 n
t 6 15 w
19 1

33 24
1
h 26 18 w
8 7

2 41
6
f 0 37 w
r 1 11 e
t 1 20 w
r 1 34 w
t 0 21 s
r 1 38 n
8 4

30 39
10
h 7 0 e
t 25 22 w
r 25 16 w
f 8 27 w
f 21 1 s
f 27 7 s
h 25 12 n
h 22 29 s
f 27 26 s
t 2 14 w
15 6

42 37
5
t 31 34 s
h 35 13 w
t 24 10 n
t 12 21 s
f 19 10 e
1 3

19 14
2
h 10 10 s
t 18 3 n
1 4

9 14
6
r 4 11 e
r 8 10 e
t 0 4 n
r 8 7 s
f 5 8 s
t 1 0 w
5 8

24 41
1
t 9 24 s
4 8

42 28
3
h 9 15 e
t 41 13 n
f 33 1 s
17 4

16 26
3
t 15 13 w
t 5 10 e
t 5 10 e
14 6

11 28
3
h 1 24 e
h 1 8 s
h 1 15 s
4 5

15 20
6
f 8 4 s
h 9 3 n
f 6 5 s
r 2 10 w
h 3 16 e
f 13 8 n
15 2

2 26
2
r 0 1 e
t 0 12 e
9 2
