20

2 7
5
t 0 2 e
t 1 3 e
r 0 4 s
f 1 4 e
f 0 3 s
155 15

17 8
8
f 13 6 s
h 3 3 s
h 5 3 e
t 6 2 s
t 16 0 e
r 9 6 s
h 12 7 e
f 6 3 n
11 16

7 11
9
f 3 0 e
h 2 6 w
t 6 0 e
t 2 0 w
t 6 1 s
r 6 1 n
t 3 6 e
f 2 5 s
t 5 6 n
68 5

14 6
8
f 3 2 e
r 3 3 e
t 3 2 w
h 5 3 e
f 5 2 e
h 2 4 n
h 9 5 w
f 10 0 e
105 5

19 15
8
r 6 0 e
h 0 1 e
f 8 12 n
r 18 13 e
t 5 6 s
h 13 3 e
t 3 10 w
h 0 1 n
199 4

17 9
4
f 16 3 n
r 13 0 w
r 8 7 s
r 5 4 s
184 7

17 17
4
r 7 8 s
t 8 15 s
f 6 15 e
r 15 11 w
20 6

11 19
5
f 0 5 e
f 0 13 s
r 4 16 s
h 2 2 n
h 5 14 n
57 10

13 18
8
f 11 6 s
r 1 5 w
f 1 9 n
r 12 6 s
t 0 5 e
f 12 4 w
r 4 4 s
r 5 16 w
27 10

10 16
7
f 6 7 e
f 1 14 e
r 5 2 s
f 7 9 n
r 3 12 n
f 0 12 e
r 5 2 s
28 2

15 10
1
f 1 0 w
187 13

13 5
2
t 4 4 e
r 9 0 s
64 11

1 10
8
f 0 5 s
t 0 3 s
t 0 9 s
h 0 1 w
h 0 6 e
t 0 6 w
h 0 4 e
t 0 1 n
68 4

11 17
14
h 8 10 w
f 3 16 w
r 6 13 e
r 7 5 w
t 4 5 e
t 6 16 e
t 8 16 n
f 2 0 w
t 8 9 s
r 1 4 s
f 3 16 e
t 2 2 e
h 5 9 s
t 7 2 n
117 8

13 16
3
h 7 13 e
t 7 3 e
f 12 1 s
181 17

18 17
3
f 6 3 e
t 14 7 e
t 5 4 s
42 5

5 8
8
h 4 5 n
f 2 2 s
h 0 6 s
r 1 2 w
r 0 6 e
h 0 2 w
f 4 6 w
f 2 5 n
46 12

11 9
3
t 5 5 s
f 10 3 e
f 7 5 s
1989 20

14 6
8
h 10 1 e
r 5 2 s
h 12 3 w
h 2 5 s
f 6 0 n
f 11 3 n
t 0 4 w
r 6 4 e
612 10

7 12
13
h 2 5 e
t 0 3 n
h 6 0 e
r 5 11 n
h 2 6 s
t 5 6 w
t 1 9 e
t 3 11 n
h 0 1 e
f 2 8 e
r 2 10 n
r 2 6 w
t 1 3 e
1118 2
