*** Darwin 10x5 ***
Turn = 0.
  01234
0 .h...
1 .r.f.
2 .....
3 .....
4 .....
5 .....
6 .....
7 .....
8 ..t.h
9 .....

Turn = 22.
  01234
0 ....h
1 ...f.
2 .....
3 .....
4 .....
5 .....
6 .....
7 .....
8 .tt..
9 ....h

Turn = 44.
  01234
0 ....h
1 ...f.
2 .....
3 .....
4 .....
5 .....
6 .....
7 .....
8 .tt..
9 ....h

Turn = 66.
  01234
0 ....h
1 ...f.
2 .....
3 .....
4 .....
5 .....
6 .....
7 .....
8 .tt..
9 ....h

Turn = 88.
  01234
0 ....h
1 ...f.
2 .....
3 .....
4 .....
5 .....
6 .....
7 .....
8 .tt..
9 ....h

Turn = 110.
  01234
0 ....h
1 ...f.
2 .....
3 .....
4 .....
5 .....
6 .....
7 .....
8 .tt..
9 ....h

Turn = 132.
  01234
0 ....h
1 ...f.
2 .....
3 .....
4 .....
5 .....
6 .....
7 .....
8 .tt..
9 ....h

Turn = 154.
  01234
0 ....h
1 ...f.
2 .....
3 .....
4 .....
5 .....
6 .....
7 .....
8 .tt..
9 ....h

Turn = 176.
  01234
0 ....h
1 ...f.
2 .....
3 .....
4 .....
5 .....
6 .....
7 .....
8 .tt..
9 ....h

Turn = 198.
  01234
0 ....h
1 ...f.
2 .....
3 .....
4 .....
5 .....
6 .....
7 .....
8 .tt..
9 ....h

Turn = 220.
  01234
0 ....h
1 ...f.
2 .....
3 .....
4 .....
5 .....
6 .....
7 .....
8 .tt..
9 ....h

Turn = 242.
  01234
0 ....h
1 ...f.
2 .....
3 .....
4 .....
5 .....
6 .....
7 .....
8 .tt..
9 ....h

Turn = 264.
  01234
0 ....h
1 ...f.
2 .....
3 .....
4 .....
5 .....
6 .....
7 .....
8 .tt..
9 ....h

Turn = 286.
  01234
0 ....h
1 ...f.
2 .....
3 .....
4 .....
5 .....
6 .....
7 .....
8 .tt..
9 ....h

Turn = 308.
  01234
0 ....h
1 ...f.
2 .....
3 .....
4 .....
5 .....
6 .....
7 .....
8 .tt..
9 ....h

Turn = 330.
  01234
0 ....h
1 ...f.
2 .....
3 .....
4 .....
5 .....
6 .....
7 .....
8 .tt..
9 ....h

Turn = 352.
  01234
0 ....h
1 ...f.
2 .....
3 .....
4 .....
5 .....
6 .....
7 .....
8 .tt..
9 ....h

Turn = 374.
  01234
0 ....h
1 ...f.
2 .....
3 .....
4 .....
5 .....
6 .....
7 .....
8 .tt..
9 ....h

Turn = 396.
  01234
0 ....h
1 ...f.
2 .....
3 .....
4 .....
5 .....
6 .....
7 .....
8 .tt..
9 ....h

Turn = 418.
  01234
0 ....h
1 ...f.
2 .....
3 .....
4 .....
5 .....
6 .....
7 .....
8 .tt..
9 ....h

Turn = 440.
  01234
0 ....h
1 ...f.
2 .....
3 .....
4 .....
5 .....
6 .....
7 .....
8 .tt..
9 ....h

Turn = 462.
  01234
0 ....h
1 ...f.
2 .....
3 .....
4 .....
5 .....
6 .....
7 .....
8 .tt..
9 ....h

Turn = 484.
  01234
0 ....h
1 ...f.
2 .....
3 .....
4 .....
5 .....
6 .....
7 .....
8 .tt..
9 ....h

*** Darwin 11x8 ***
Turn = 0.
  01234567
0 ........
1 ........
2 t...r...
3 ........
4 ........
5 ...h....
6 ........
7 .r......
8 ..r.....
9 ........
0 .r..f..r

Turn = 20.
  01234567
0 rr......
1 ..r.....
2 ...r....
3 t.......
4 ........
5 .......h
6 ........
7 ........
8 .......r
9 .......r
0 ........

Turn = 40.
  01234567
0 ..r.....
1 ........
2 tr......
3 t.......
4 t.......
5 rr......
6 t.......
7 ........
8 ........
9 ........
0 ........

Turn = 60.
  01234567
0 r......r
1 r......r
2 ........
3 .......r
4 ......r.
5 .t......
6 ........
7 ........
8 ........
9 ........
0 .......r

Turn = 80.
  01234567
0 ....r...
1 r.......
2 ........
3 ........
4 ..r.....
5 ...r....
6 ........
7 ..r....r
8 ........
9 .r......
0 .r......

Turn = 100.
  01234567
0 r.......
1 ....r...
2 .....r..
3 ........
4 ....r...
5 ...r....
6 ...r....
7 ........
8 r.......
9 ........
0 .....r..

Turn = 120.
  01234567
0 rrr....r
1 .......r
2 ........
3 .....r..
4 ........
5 r......r
6 ........
7 ........
8 ........
9 ........
0 ........

Turn = 140.
  01234567
0 ...r.r..
1 ........
2 ........
3 ........
4 ........
5 ........
6 r.......
7 .r......
8 ......r.
9 ...r...r
0 ..r.....

Turn = 160.
  01234567
0 r.r....r
1 ........
2 r.......
3 ........
4 ........
5 ........
6 .......r
7 ......r.
8 .......r
9 ........
0 ......r.

Turn = 180.
  01234567
0 .......r
1 r.......
2 rr......
3 r.......
4 ....rr..
5 ........
6 ........
7 ........
8 ........
9 ........
0 ......r.

*** Darwin 13x8 ***
Turn = 0.
  01234567
0 ........
1 fr......
2 ........
3 ......f.
4 ...f....
5 ........
6 .t......
7 ........
8 ........
9 ........
0 ........
1 ........
2 ...h...f

Turn = 3.
  01234567
0 ........
1 f...r...
2 ........
3 ......f.
4 ...f....
5 ........
6 .t......
7 ........
8 ........
9 ...h....
0 ........
1 ........
2 .......f

Turn = 6.
  01234567
0 ........
1 f......r
2 ........
3 ......f.
4 ...f....
5 ........
6 .t.h....
7 ........
8 ........
9 ........
0 ........
1 ........
2 .......f

Turn = 9.
  01234567
0 ........
1 f.......
2 ........
3 ......fr
4 ...f....
5 ...h....
6 .t......
7 ........
8 ........
9 ........
0 ........
1 ........
2 .......f

Turn = 12.
  01234567
0 ........
1 f.......
2 ........
3 ......f.
4 ...f....
5 ...h....
6 .t.....r
7 ........
8 ........
9 ........
0 ........
1 ........
2 .......f

Turn = 15.
  01234567
0 ........
1 f.......
2 ........
3 ......f.
4 ...f....
5 ...h....
6 .t......
7 ........
8 ........
9 .......r
0 ........
1 ........
2 .......f

Turn = 18.
  01234567
0 ........
1 f.......
2 ........
3 ......f.
4 ...f....
5 ...h....
6 .t......
7 ........
8 ........
9 ........
0 ........
1 .......r
2 .......r

Turn = 21.
  01234567
0 ........
1 f.......
2 ........
3 ......f.
4 ...f....
5 ...h....
6 .t......
7 ........
8 ........
9 ........
0 ........
1 .....r..
2 ....r...

Turn = 24.
  01234567
0 ........
1 f.......
2 ........
3 ......f.
4 ...f....
5 ...h....
6 .t......
7 ........
8 ........
9 ........
0 ........
1 ..r.....
2 .r......

Turn = 27.
  01234567
0 ........
1 f.......
2 ........
3 ......f.
4 ...f....
5 ...h....
6 .t......
7 ........
8 ........
9 ........
0 ........
1 r.......
2 r.......

Turn = 30.
  01234567
0 ........
1 f.......
2 ........
3 ......f.
4 ...f....
5 ...h....
6 .t......
7 ........
8 r.......
9 ........
0 ........
1 ........
2 ...r....

Turn = 33.
  01234567
0 ........
1 f.......
2 ........
3 ......f.
4 ...f....
5 r..h....
6 .t......
7 ........
8 ........
9 ........
0 ........
1 ........
2 ......r.

Turn = 36.
  01234567
0 ........
1 f.......
2 r.......
3 ......f.
4 ...f....
5 ...h....
6 .t......
7 ........
8 ........
9 ........
0 ........
1 .......r
2 ........

Turn = 39.
  01234567
0 ........
1 r.......
2 .r......
3 ......f.
4 ...f....
5 ...h....
6 .t......
7 ........
8 .......r
9 ........
0 ........
1 ........
2 ........

Turn = 42.
  01234567
0 ........
1 ........
2 ....r...
3 r.....f.
4 ...f....
5 ...h...r
6 .t......
7 ........
8 ........
9 ........
0 ........
1 ........
2 ........

Turn = 45.
  01234567
0 ........
1 ........
2 .......r
3 ......fr
4 ...f....
5 ...h....
6 rt......
7 ........
8 ........
9 ........
0 ........
1 ........
2 ........

Turn = 48.
  01234567
0 .......r
1 ........
2 ........
3 ......f.
4 ...f....
5 ...h...r
6 .t......
7 ........
8 ........
9 r.......
0 ........
1 ........
2 ........

Turn = 51.
  01234567
0 .......r
1 ........
2 ........
3 ......f.
4 ...f....
5 ...h....
6 .t......
7 ........
8 .......r
9 ........
0 ........
1 ........
2 r.......

Turn = 54.
  01234567
0 ....r...
1 ........
2 ........
3 ......f.
4 ...f....
5 ...h....
6 .t......
7 ........
8 ........
9 ........
0 ........
1 .......r
2 ..r.....

Turn = 57.
  01234567
0 .r......
1 ........
2 ........
3 ......f.
4 ...f....
5 ...h....
6 .t......
7 ........
8 ........
9 ........
0 ........
1 ........
2 .....r.r

*** Darwin 15x13 ***
Turn = 0.
  0123456789012
0 .............
1 .............
2 h............
3 .f...........
4 .............
5 .............
6 .............
7 .............
8 ..........h..
9 ...t.....h...
0 r.....f......
1 .............
2 .............
3 ......t..t...
4 ..........t..

Turn = 64.
  0123456789012
0 ...r.........
1 .............
2 .............
3 .............
4 .............
5 .............
6 ............r
7 .............
8 ...t.........
9 r............
0 ......f......
1 .............
2 .............
3 ......t..t...
4 r..r.....t...

Turn = 128.
  0123456789012
0 .............
1 .............
2 .............
3 .............
4 .............
5 r............
6 ..........rr.
7 .............
8 ...t.........
9 .............
0 ......f......
1 .............
2 .............
3 ......t..t...
4 .....tt..t...

Turn = 192.
  0123456789012
0 .............
1 .............
2 r............
3 .............
4 .............
5 r............
6 ............r
7 ...r.........
8 ...t.........
9 r............
0 ............r
1 .r...........
2 ..r..........
3 .............
4 r............

Turn = 256.
  0123456789012
0 .....r..r.r.r
1 ........r....
2 .......rr....
3 r............
4 r............
5 .............
6 .............
7 .............
8 ...t.........
9 .............
0 .............
1 .............
2 .............
3 .............
4 .............

*** Darwin 15x18 ***
Turn = 0.
  012345678901234567
0 ...............h..
1 ..................
2 ..................
3 ..................
4 .............f....
5 ......t...........
6 ..................
7 ..................
8 ..................
9 ..................
0 ..................
1 ...............f..
2 ..................
3 ..................
4 ..................

Turn = 84.
  012345678901234567
0 ..................
1 ..................
2 ..................
3 ..................
4 .............f....
5 ......t...........
6 ..................
7 ..................
8 ..................
9 ..................
0 ...............h..
1 ...............f..
2 ..................
3 ..................
4 ..................

Turn = 168.
  012345678901234567
0 ..................
1 ..................
2 ..................
3 ..................
4 .............f....
5 ......t...........
6 ..................
7 ..................
8 ..................
9 ..................
0 ...............h..
1 ...............f..
2 ..................
3 ..................
4 ..................

Turn = 252.
  012345678901234567
0 ..................
1 ..................
2 ..................
3 ..................
4 .............f....
5 ......t...........
6 ..................
7 ..................
8 ..................
9 ..................
0 ...............h..
1 ...............f..
2 ..................
3 ..................
4 ..................

Turn = 336.
  012345678901234567
0 ..................
1 ..................
2 ..................
3 ..................
4 .............f....
5 ......t...........
6 ..................
7 ..................
8 ..................
9 ..................
0 ...............h..
1 ...............f..
2 ..................
3 ..................
4 ..................

Turn = 420.
  012345678901234567
0 ..................
1 ..................
2 ..................
3 ..................
4 .............f....
5 ......t...........
6 ..................
7 ..................
8 ..................
9 ..................
0 ...............h..
1 ...............f..
2 ..................
3 ..................
4 ..................

Turn = 504.
  012345678901234567
0 ..................
1 ..................
2 ..................
3 ..................
4 .............f....
5 ......t...........
6 ..................
7 ..................
8 ..................
9 ..................
0 ...............h..
1 ...............f..
2 ..................
3 ..................
4 ..................

Turn = 588.
  012345678901234567
0 ..................
1 ..................
2 ..................
3 ..................
4 .............f....
5 ......t...........
6 ..................
7 ..................
8 ..................
9 ..................
0 ...............h..
1 ...............f..
2 ..................
3 ..................
4 ..................

Turn = 672.
  012345678901234567
0 ..................
1 ..................
2 ..................
3 ..................
4 .............f....
5 ......t...........
6 ..................
7 ..................
8 ..................
9 ..................
0 ...............h..
1 ...............f..
2 ..................
3 ..................
4 ..................

Turn = 756.
  012345678901234567
0 ..................
1 ..................
2 ..................
3 ..................
4 .............f....
5 ......t...........
6 ..................
7 ..................
8 ..................
9 ..................
0 ...............h..
1 ...............f..
2 ..................
3 ..................
4 ..................

*** Darwin 11x15 ***
Turn = 0.
  012345678901234
0 ...............
1 .f.............
2 ...............
3 ..........r....
4 ...r.........h.
5 ...............
6 ..........t.r..
7 .f.............
8 ...............
9 .........t.....
0 ...............

Turn = 48.
  012345678901234
0 r..............
1 ...............
2 r..............
3 ...............
4 ...............
5 ...............
6 ..............r
7 ..............r
8 ..............r
9 ........tt.....
0 .............r.

Turn = 96.
  012345678901234
0 ...r.r.........
1 ...............
2 ...............
3 ...............
4 ...............
5 ...............
6 ...............
7 ...............
8 ..........t....
9 ........t.t....
0 ........ttt....

Turn = 144.
  012345678901234
0 ...............
1 ...............
2 ...............
3 ...............
4 ...............
5 ...............
6 ...............
7 .......r.......
8 ..........t....
9 ........r.t....
0 .......rttt....

Turn = 192.
  012345678901234
0 ..........rr.r.
1 ...............
2 r..............
3 ...............
4 ...............
5 ...............
6 ..............r
7 .r.............
8 ...r...........
9 ...............
0 r..............

Turn = 240.
  012345678901234
0 rr.....r.......
1 ...............
2 ...............
3 ..............r
4 ...............
5 ..............r
6 ...............
7 ...............
8 ...............
9 ...............
0 r......r......r

Turn = 288.
  012345678901234
0 ..r..r.........
1 ......r........
2 ...............
3 ...............
4 .............rr
5 ...............
6 ...............
7 ...............
8 ..............r
9 ..............r
0 ..........r....

Turn = 336.
  012345678901234
0 .............r.
1 ...............
2 ...............
3 .......r.......
4 ...............
5 .....r.......rr
6 ...............
7 ...............
8 ...............
9 ..r....r.......
0 ...r...........

Turn = 384.
  012345678901234
0 ........r...rr.
1 ...............
2 ...............
3 ...............
4 ..............r
5 ...............
6 ...............
7 r..............
8 .r.............
9 .r.............
0 ...r...........

*** Darwin 13x6 ***
Turn = 0.
  012345
0 h..f..
1 ...r..
2 r.....
3 ......
4 ......
5 ......
6 ......
7 ......
8 .r....
9 ......
0 .f....
1 ......
2 .....f

Turn = 152.
  012345
0 r.....
1 r.....
2 r.....
3 ......
4 ......
5 ......
6 ....r.
7 ......
8 ......
9 ......
0 .r....
1 .....r
2 .....r

Turn = 304.
  012345
0 ..r...
1 ......
2 ......
3 ......
4 ......
5 .....r
6 ....rr
7 .....r
8 ......
9 ......
0 ......
1 ......
2 ..r..r

Turn = 456.
  012345
0 ......
1 ......
2 ......
3 ......
4 r.....
5 ..r...
6 ......
7 ......
8 ......
9 ......
0 r.....
1 ...rr.
2 r..r..

Turn = 608.
  012345
0 ..rr..
1 .....r
2 ......
3 r.....
4 ......
5 ......
6 ......
7 ......
8 ......
9 ......
0 ......
1 .r....
2 ...r.r

Turn = 760.
  012345
0 ......
1 ......
2 ......
3 r.....
4 ......
5 .....r
6 ....r.
7 ....r.
8 ......
9 .....r
0 ..r...
1 ......
2 .r....

*** Darwin 18x7 ***
Turn = 0.
  0123456
0 f...th.
1 .......
2 .......
3 .......
4 ..tf...
5 ..f....
6 .......
7 .......
8 .......
9 .......
0 .......
1 f......
2 .......
3 fr.....
4 ......r
5 .......
6 .......
7 .......

Turn = 8.
  0123456
0 f...t..
1 .......
2 .......
3 .......
4 ..tt...
5 ..t....
6 .......
7 .......
8 .....h.
9 .......
0 .......
1 f......
2 .......
3 .......
4 .......
5 .......
6 r......
7 r..r...

Turn = 16.
  0123456
0 f...t..
1 .......
2 .......
3 .......
4 ..tt...
5 ..t....
6 .......
7 .......
8 .......
9 .......
0 .......
1 f......
2 .......
3 .......
4 r......
5 .......
6 ....rr.
7 ...r...

Turn = 24.
  0123456
0 f...t..
1 .......
2 .......
3 .......
4 ..tt...
5 ..t....
6 .......
7 r......
8 .......
9 .......
0 .......
1 .....r.
2 .......
3 ....r..
4 .......
5 .......
6 .......
7 .r...r.

Turn = 32.
  0123456
0 r...t..
1 r......
2 .......
3 .......
4 ..tt...
5 ..t.r..
6 .......
7 .......
8 .......
9 .......
0 .......
1 .......
2 .......
3 .......
4 .......
5 .......
6 .......
7 rr....r

Turn = 40.
  0123456
0 .....rr
1 .......
2 r.....r
3 .......
4 ..tt...
5 ..t....
6 .......
7 .......
8 .......
9 r......
0 .......
1 r......
2 .......
3 .......
4 .......
5 .......
6 .......
7 r......

Turn = 48.
  0123456
0 .......
1 r......
2 r......
3 rr.....
4 ..tt...
5 ..t....
6 .......
7 .......
8 ......r
9 .......
0 ......r
1 .......
2 .......
3 .......
4 .......
5 .......
6 .......
7 ......r

Turn = 56.
  0123456
0 ....r..
1 .......
2 .......
3 ......r
4 ..tt...
5 ..t....
6 .......
7 r......
8 .......
9 .......
0 .......
1 .r.....
2 .......
3 .......
4 .......
5 .......
6 ......r
7 .r....r

Turn = 64.
  0123456
0 ....r..
1 .......
2 .......
3 .......
4 ..tt...
5 ..t....
6 .......
7 .......
8 .......
9 .......
0 ......r
1 ......r
2 .......
3 .r.....
4 ..r....
5 .......
6 r......
7 r......

Turn = 72.
  0123456
0 ..r....
1 .......
2 .......
3 ......r
4 ..tt...
5 ..t....
6 .......
7 .......
8 .......
9 .......
0 .......
1 r.....r
2 r......
3 .......
4 ....r..
5 .......
6 ......r
7 .......

Turn = 80.
  0123456
0 ..r.r..
1 .......
2 .......
3 ......r
4 ..tt...
5 ..t....
6 .......
7 .......
8 ......r
9 .......
0 .r.....
1 .......
2 .......
3 .......
4 .......
5 .......
6 r......
7 r......

Turn = 88.
  0123456
0 ..r...r
1 r......
2 .r.....
3 .......
4 ..tt...
5 r.t....
6 .......
7 .......
8 .......
9 .......
0 .......
1 .......
2 .......
3 .......
4 .......
5 .......
6 ......r
7 ......r

Turn = 96.
  0123456
0 .....r.
1 .......
2 .......
3 ..r....
4 ..tt...
5 r.t....
6 .......
7 .......
8 .......
9 r......
0 .......
1 .......
2 .......
3 r......
4 .......
5 .......
6 r......
7 r......

Turn = 104.
  0123456
0 .......
1 .......
2 .......
3 .......
4 ...t...
5 .......
6 r.....r
7 .......
8 .......
9 .......
0 .......
1 ..r....
2 r......
3 r.r....
4 .......
5 r...r..
6 .......
7 ......r

Turn = 112.
  0123456
0 .......
1 .......
2 .......
3 .......
4 ...t...
5 .......
6 .......
7 .......
8 .......
9 .......
0 .......
1 ...r...
2 r.....r
3 .......
4 ......r
5 ......r
6 r..r...
7 ...r.r.

Turn = 120.
  0123456
0 .......
1 .......
2 .......
3 .......
4 ...t...
5 ......r
6 .......
7 .......
8 ......r
9 .......
0 .......
1 .......
2 r......
3 .......
4 ......r
5 r....r.
6 ...rr..
7 ......r

Turn = 128.
  0123456
0 ....r.r
1 .......
2 .......
3 .......
4 r..t...
5 .......
6 ......r
7 r......
8 .......
9 ......r
0 .......
1 .......
2 .....r.
3 .......
4 .......
5 ...r...
6 .......
7 ......r

Turn = 136.
  0123456
0 r.....r
1 rr..r.r
2 .......
3 .......
4 ...t.r.
5 .......
6 .......
7 ...r...
8 .......
9 ......r
0 .......
1 .......
2 .......
3 .......
4 .......
5 .......
6 .......
7 .......

*** Darwin 6x20 ***
Turn = 0.
  01234567890123456789
0 ....................
1 ....................
2 .f..................
3 ...............f....
4 ....................
5 ....................

Turn = 16.
  01234567890123456789
0 ....................
1 ....................
2 .f..................
3 ...............f....
4 ....................
5 ....................

Turn = 32.
  01234567890123456789
0 ....................
1 ....................
2 .f..................
3 ...............f....
4 ....................
5 ....................

Turn = 48.
  01234567890123456789
0 ....................
1 ....................
2 .f..................
3 ...............f....
4 ....................
5 ....................

Turn = 64.
  01234567890123456789
0 ....................
1 ....................
2 .f..................
3 ...............f....
4 ....................
5 ....................

Turn = 80.
  01234567890123456789
0 ....................
1 ....................
2 .f..................
3 ...............f....
4 ....................
5 ....................

Turn = 96.
  01234567890123456789
0 ....................
1 ....................
2 .f..................
3 ...............f....
4 ....................
5 ....................

Turn = 112.
  01234567890123456789
0 ....................
1 ....................
2 .f..................
3 ...............f....
4 ....................
5 ....................

Turn = 128.
  01234567890123456789
0 ....................
1 ....................
2 .f..................
3 ...............f....
4 ....................
5 ....................

Turn = 144.
  01234567890123456789
0 ....................
1 ....................
2 .f..................
3 ...............f....
4 ....................
5 ....................

Turn = 160.
  01234567890123456789
0 ....................
1 ....................
2 .f..................
3 ...............f....
4 ....................
5 ....................

Turn = 176.
  01234567890123456789
0 ....................
1 ....................
2 .f..................
3 ...............f....
4 ....................
5 ....................

Turn = 192.
  01234567890123456789
0 ....................
1 ....................
2 .f..................
3 ...............f....
4 ....................
5 ....................

Turn = 208.
  01234567890123456789
0 ....................
1 ....................
2 .f..................
3 ...............f....
4 ....................
5 ....................

Turn = 224.
  01234567890123456789
0 ....................
1 ....................
2 .f..................
3 ...............f....
4 ....................
5 ....................

Turn = 240.
  01234567890123456789
0 ....................
1 ....................
2 .f..................
3 ...............f....
4 ....................
5 ....................

Turn = 256.
  01234567890123456789
0 ....................
1 ....................
2 .f..................
3 ...............f....
4 ....................
5 ....................

Turn = 272.
  01234567890123456789
0 ....................
1 ....................
2 .f..................
3 ...............f....
4 ....................
5 ....................

Turn = 288.
  01234567890123456789
0 ....................
1 ....................
2 .f..................
3 ...............f....
4 ....................
5 ....................

Turn = 304.
  01234567890123456789
0 ....................
1 ....................
2 .f..................
3 ...............f....
4 ....................
5 ....................

Turn = 320.
  01234567890123456789
0 ....................
1 ....................
2 .f..................
3 ...............f....
4 ....................
5 ....................

Turn = 336.
  01234567890123456789
0 ....................
1 ....................
2 .f..................
3 ...............f....
4 ....................
5 ....................

Turn = 352.
  01234567890123456789
0 ....................
1 ....................
2 .f..................
3 ...............f....
4 ....................
5 ....................

Turn = 368.
  01234567890123456789
0 ....................
1 ....................
2 .f..................
3 ...............f....
4 ....................
5 ....................

Turn = 384.
  01234567890123456789
0 ....................
1 ....................
2 .f..................
3 ...............f....
4 ....................
5 ....................

Turn = 400.
  01234567890123456789
0 ....................
1 ....................
2 .f..................
3 ...............f....
4 ....................
5 ....................

Turn = 416.
  01234567890123456789
0 ....................
1 ....................
2 .f..................
3 ...............f....
4 ....................
5 ....................

Turn = 432.
  01234567890123456789
0 ....................
1 ....................
2 .f..................
3 ...............f....
4 ....................
5 ....................

Turn = 448.
  01234567890123456789
0 ....................
1 ....................
2 .f..................
3 ...............f....
4 ....................
5 ....................

Turn = 464.
  01234567890123456789
0 ....................
1 ....................
2 .f..................
3 ...............f....
4 ....................
5 ....................

Turn = 480.
  01234567890123456789
0 ....................
1 ....................
2 .f..................
3 ...............f....
4 ....................
5 ....................

Turn = 496.
  01234567890123456789
0 ....................
1 ....................
2 .f..................
3 ...............f....
4 ....................
5 ....................

Turn = 512.
  01234567890123456789
0 ....................
1 ....................
2 .f..................
3 ...............f....
4 ....................
5 ....................

Turn = 528.
  01234567890123456789
0 ....................
1 ....................
2 .f..................
3 ...............f....
4 ....................
5 ....................

Turn = 544.
  01234567890123456789
0 ....................
1 ....................
2 .f..................
3 ...............f....
4 ....................
5 ....................

Turn = 560.
  01234567890123456789
0 ....................
1 ....................
2 .f..................
3 ...............f....
4 ....................
5 ....................

Turn = 576.
  01234567890123456789
0 ....................
1 ....................
2 .f..................
3 ...............f....
4 ....................
5 ....................

Turn = 592.
  01234567890123456789
0 ....................
1 ....................
2 .f..................
3 ...............f....
4 ....................
5 ....................

Turn = 608.
  01234567890123456789
0 ....................
1 ....................
2 .f..................
3 ...............f....
4 ....................
5 ....................

Turn = 624.
  01234567890123456789
0 ....................
1 ....................
2 .f..................
3 ...............f....
4 ....................
5 ....................

Turn = 640.
  01234567890123456789
0 ....................
1 ....................
2 .f..................
3 ...............f....
4 ....................
5 ....................

Turn = 656.
  01234567890123456789
0 ....................
1 ....................
2 .f..................
3 ...............f....
4 ....................
5 ....................

Turn = 672.
  01234567890123456789
0 ....................
1 ....................
2 .f..................
3 ...............f....
4 ....................
5 ....................

Turn = 688.
  01234567890123456789
0 ....................
1 ....................
2 .f..................
3 ...............f....
4 ....................
5 ....................

Turn = 704.
  01234567890123456789
0 ....................
1 ....................
2 .f..................
3 ...............f....
4 ....................
5 ....................

Turn = 720.
  01234567890123456789
0 ....................
1 ....................
2 .f..................
3 ...............f....
4 ....................
5 ....................

Turn = 736.
  01234567890123456789
0 ....................
1 ....................
2 .f..................
3 ...............f....
4 ....................
5 ....................

Turn = 752.
  01234567890123456789
0 ....................
1 ....................
2 .f..................
3 ...............f....
4 ....................
5 ....................

Turn = 768.
  01234567890123456789
0 ....................
1 ....................
2 .f..................
3 ...............f....
4 ....................
5 ....................

Turn = 784.
  01234567890123456789
0 ....................
1 ....................
2 .f..................
3 ...............f....
4 ....................
5 ....................

Turn = 800.
  01234567890123456789
0 ....................
1 ....................
2 .f..................
3 ...............f....
4 ....................
5 ....................

Turn = 816.
  01234567890123456789
0 ....................
1 ....................
2 .f..................
3 ...............f....
4 ....................
5 ....................

Turn = 832.
  01234567890123456789
0 ....................
1 ....................
2 .f..................
3 ...............f....
4 ....................
5 ....................

Turn = 848.
  01234567890123456789
0 ....................
1 ....................
2 .f..................
3 ...............f....
4 ....................
5 ....................

Turn = 864.
  01234567890123456789
0 ....................
1 ....................
2 .f..................
3 ...............f....
4 ....................
5 ....................

Turn = 880.
  01234567890123456789
0 ....................
1 ....................
2 .f..................
3 ...............f....
4 ....................
5 ....................

Turn = 896.
  01234567890123456789
0 ....................
1 ....................
2 .f..................
3 ...............f....
4 ....................
5 ....................

Turn = 912.
  01234567890123456789
0 ....................
1 ....................
2 .f..................
3 ...............f....
4 ....................
5 ....................

*** Darwin 9x7 ***
Turn = 0.
  0123456
0 t......
1 ....h.f
2 ..h..tf
3 .f.....
4 .r.t..r
5 ...h.h.
6 .......
7 .......
8 .......

Turn = 51.
  0123456
0 rr.....
1 ...r..t
2 ......t
3 .f....t
4 ...tt.t
5 ......t
6 r......
7 .......
8 .......

Turn = 102.
  0123456
0 r...r..
1 .......
2 .......
3 .....rt
4 r..tttt
5 .....t.
6 .r.....
7 .......
8 .r.....

Turn = 153.
  0123456
0 .......
1 .......
2 r...t..
3 ....ttt
4 r...t.t
5 ..r....
6 .......
7 .......
8 r..r..r

*** Darwin 11x9 ***
Turn = 0.
  012345678
0 ........h
1 .........
2 .........
3 ...trt...
4 ...f.....
5 .........
6 .........
7 r.......t
8 .....r...
9 .....rt..
0 ....h.f..

Turn = 61.
  012345678
0 .........
1 .........
2 .........
3 ...ttt...
4 ...t.tt..
5 r........
6 .........
7 .........
8 ....r....
9 ....r.tt.
0 ....r....

Turn = 122.
  012345678
0 .........
1 .........
2 ........r
3 ...ttt...
4 ...t.tt..
5 .........
6 .........
7 .........
8 .........
9 ......tt.
0 .....rrr.

Turn = 183.
  012345678
0 ....r.r.r
1 ...r.....
2 .....r...
3 .r...r...
4 ....r....
5 .........
6 .........
7 .........
8 .........
9 .......tt
0 r....r...

Turn = 244.
  012345678
0 r.r.....r
1 .....r...
2 .r.......
3 ........r
4 .........
5 r...r....
6 .........
7 ........r
8 ........r
9 .........
0 .....rr..

Turn = 305.
  012345678
0 rr.......
1 ........r
2 .........
3 .........
4 r.......r
5 .r.......
6 .........
7 ........r
8 .........
9 r......r.
0 r...rr...

Turn = 366.
  012345678
0 rrr......
1 r.r......
2 r........
3 r........
4 ...r.....
5 .........
6 ......r..
7 .........
8 .........
9 ....r....
0 r.......r

Turn = 427.
  012345678
0 ..r......
1 .r.......
2 .........
3 .........
4 r........
5 .r.r.....
6 r........
7 ....r....
8 ......rr.
9 .......r.
0 .......rr

Turn = 488.
  012345678
0 ..r.r..rr
1 rr.......
2 r........
3 .........
4 ........r
5 .r......r
6 .........
7 .........
8 .........
9 ........r
0 .......r.

Turn = 549.
  012345678
0 r...r....
1 .r.......
2 .......r.
3 .......r.
4 .........
5 r........
6 .........
7 .r.....r.
8 .r.......
9 ......r..
0 ..r..r...

Turn = 610.
  012345678
0 .rr...r.r
1 .........
2 .........
3 .r.......
4 .......r.
5 .r...r...
6 .........
7 .........
8 rr.......
9 ........r
0 .r.......

*** Darwin 13x9 ***
Turn = 0.
  012345678
0 ......r..
1 ..h......
2 ...r.....
3 r....f...
4 .r.......
5 .........
6 .........
7 .........
8 .........
9 f....t...
0 .......tf
1 h........
2 rh.......

Turn = 107.
  012345678
0 rrr.....r
1 .........
2 r...r....
3 .........
4 .........
5 .........
6 .....r...
7 .........
8 ......r..
9 ...r..tt.
0 r........
1 .........
2 ..r......

Turn = 214.
  012345678
0 ........r
1 ........r
2 r.r......
3 .........
4 ........r
5 .r.......
6 r........
7 r........
8 r........
9 .r.......
0 .........
1 r........
2 r......r.

Turn = 321.
  012345678
0 r.......r
1 .........
2 .........
3 ........r
4 ........r
5 .........
6 .........
7 .r...r..r
8 .........
9 r..r.....
0 r........
1 .....r...
2 .....r..r

Turn = 428.
  012345678
0 .r.r.r...
1 ....r.r..
2 .........
3 ........r
4 .......r.
5 .......r.
6 .........
7 .r.......
8 ..rrr....
9 .........
0 r........
1 .........
2 .........

Turn = 535.
  012345678
0 ......r..
1 .........
2 .......r.
3 r.......r
4 .........
5 .........
6 .........
7 .........
8 ..r.r..r.
9 r.r......
0 r.......r
1 .........
2 r.......r

*** Darwin 18x16 ***
Turn = 0.
  0123456789012345
0 ..........h...t.
1 r...........h...
2 ...h............
3 ................
4 .......f........
5 ................
6 ................
7 ................
8 ...fh...........
9 ....f....h......
0 ................
1 ................
2 ........h.h.....
3 ................
4 ...........r....
5 ................
6 ................
7 ...........r....

Turn = 41.
  0123456789012345
0 .....r........t.
1 .............r..
2 ................
3 ................
4 ............r...
5 ..............r.
6 ................
7 ................
8 ...fh...........
9 ....f...........
0 ...............r
1 r.r.............
2 ................
3 ................
4 ................
5 ................
6 ................
7 ........hh..h...

Turn = 82.
  0123456789012345
0 r.............t.
1 ................
2 ...............r
3 ................
4 ................
5 ......r.........
6 ................
7 ................
8 ...fh....r......
9 ................
0 .........r..rr..
1 r...............
2 ................
3 ................
4 ................
5 ................
6 ................
7 rrr.............

Turn = 123.
  0123456789012345
0 .......r.....r..
1 ...............r
2 ................
3 ................
4 ................
5 ................
6 ................
7 r..rr...........
8 ................
9 ................
0 ................
1 .............r..
2 ............r...
3 ................
4 ............rrr.
5 ................
6 ................
7 r.r..r..........

Turn = 164.
  0123456789012345
0 .......r........
1 ................
2 ................
3 ................
4 ................
5 .r..............
6 ................
7 ................
8 ................
9 r...............
0 ....r...........
1 .....rr.........
2 ................
3 ................
4 rr..............
5 r...............
6 ..........rrr...
7 r........r......

Turn = 205.
  0123456789012345
0 r....r.......r..
1 ..........r.....
2 r...............
3 ................
4 ................
5 ................
6 r...............
7 ................
8 ................
9 r...............
0 ................
1 r......rrr......
2 ................
3 ................
4 ................
5 ................
6 ................
7 ....rr......r...

Turn = 246.
  0123456789012345
0 .........r......
1 ............r..r
2 ......r.........
3 r.....r.........
4 .r...r..........
5 ................
6 ................
7 ................
8 .....r..........
9 ................
0 ................
1 ................
2 r..r...........r
3 r...............
4 ................
5 ................
6 ................
7 ............r...

Turn = 287.
  0123456789012345
0 r.........r.....
1 ...........r....
2 ................
3 ................
4 ..............r.
5 ................
6 ................
7 ..........r.....
8 ...............r
9 ................
0 .......r.......r
1 ................
2 ................
3 ................
4 r...............
5 .r..............
6 .....r..........
7 r.rr............

Turn = 328.
  0123456789012345
0 .............r.r
1 .............r.r
2 ................
3 ................
4 ................
5 ................
6 ................
7 ................
8 ................
9 ................
0 ................
1 ................
2 ..rr..r.........
3 ................
4 r..............r
5 r...............
6 r...........r...
7 .rr.............

Turn = 369.
  0123456789012345
0 ...r............
1 ................
2 .......r........
3 ................
4 ...............r
5 ................
6 ................
7 ............r..r
8 r..........r....
9 ................
0 r........r......
1 ................
2 ......r......rr.
3 ................
4 ...............r
5 ................
6 ................
7 ...............r

Turn = 410.
  0123456789012345
0 ....r...........
1 r...............
2 ............r..r
3 ................
4 ................
5 .......r........
6 ......r.........
7 ................
8 r...............
9 ................
0 ...............r
1 ................
2 ...............r
3 ................
4 ........r..rr...
5 .............r..
6 ................
7 ......r.........

Turn = 451.
  0123456789012345
0 ................
1 ................
2 ................
3 ................
4 ................
5 ...............r
6 ................
7 ................
8 r............r..
9 ................
0 r..rr.......rr..
1 ................
2 ................
3 r...............
4 .............rr.
5 ................
6 ...........r....
7 ..........r.r...

*** Darwin 7x16 ***
Turn = 0.
  0123456789012345
0 ....r......t....
1 ...r....t.......
2 .....r.........r
3 ...h.....r....h.
4 ................
5 ..t.........t...
6 r......t.......h

Turn = 15.
  0123456789012345
0 .r...........rr.
1 rr............r.
2 ...............r
3 ................
4 ................
5 r.t.........t...
6 ...h...t.....r.r

Turn = 30.
  0123456789012345
0 r.....rr.r.r.r.r
1 ................
2 ................
3 ................
4 ............r...
5 ..t.........t...
6 ...h.rr.....t...

Turn = 45.
  0123456789012345
0 r..rr......r.r..
1 ...............r
2 .........r......
3 rr..............
4 ................
5 ..trr...r.......
6 .......r........

Turn = 60.
  0123456789012345
0 r..r............
1 .r..............
2 r...............
3 r....r......r...
4 ......r.........
5 ..........rr....
6 ........r...rr.r

Turn = 75.
  0123456789012345
0 .r....rrr.......
1 ...............r
2 ........r......r
3 ...............r
4 ..........r.....
5 ...r...rr.......
6 ...r...........r

Turn = 90.
  0123456789012345
0 .r...rr.........
1 .....r..........
2 r.r.............
3 rr..............
4 r..............r
5 r...............
6 rrr.............

Turn = 105.
  0123456789012345
0 ..r.......r.....
1 ......r.........
2 .......r........
3 .......rr....r..
4 .r.....r........
5 r............r..
6 .r.....r.....r..

Turn = 120.
  0123456789012345
0 rr..r....r......
1 rr............r.
2 ...............r
3 ........r......r
4 ............rr..
5 ...........r....
6 ...............r

Turn = 135.
  0123456789012345
0 r...........rr..
1 ...............r
2 r....r..........
3 r...............
4 r........r......
5 ................
6 .r.r.rrr........

Turn = 150.
  0123456789012345
0 .rr............r
1 ...........r..r.
2 ................
3 ...r............
4 r..r...........r
5 .r.rr...........
6 ...r........r...

Turn = 165.
  0123456789012345
0 r.......r..r....
1 ......r.........
2 ........r.......
3 ................
4 .r.............r
5 ........rr..rr.r
6 ............r..r

Turn = 180.
  0123456789012345
0 r.........rr.rr.
1 .....r..r.......
2 ............r...
3 ................
4 ..r.............
5 .r..............
6 r.r.......r....r

Turn = 195.
  0123456789012345
0 r..........r....
1 ...............r
2 r.....r....r....
3 r...........r..r
4 .r..............
5 ................
6 r...rr.r........

Turn = 210.
  0123456789012345
0 ..rr..r.......rr
1 ..........r.....
2 r.........r.....
3 ..........r.....
4 ...............r
5 ................
6 ......r.rrr.....

Turn = 225.
  0123456789012345
0 ....r.....r.....
1 ............r...
2 .......r........
3 .r....rr........
4 ............rr..
5 .............r.r
6 r....r.....r....

Turn = 240.
  0123456789012345
0 ....rrr.r....r..
1 .......r........
2 r..............r
3 ......r.........
4 rr.......r......
5 .r..............
6 r...............

Turn = 255.
  0123456789012345
0 .rr..........r..
1 .....r..........
2 .r.........r....
3 r...............
4 ..........r.....
5 ..r.............
6 rr....r..r....r.

Turn = 270.
  0123456789012345
0 ....rrr.........
1 .....r..........
2 ..............r.
3 ......r.........
4 .....rr.........
5 r..............r
6 ...r...rr.....r.

Turn = 285.
  0123456789012345
0 .....r.....r...r
1 rr...r.........r
2 ..r.........rrr.
3 ....r...........
4 ................
5 ...............r
6 ..............r.

Turn = 300.
  0123456789012345
0 .....r.....rr...
1 ...........r....
2 r..........r....
3 ...........r....
4 ......r...r.....
5 ...r.......r....
6 ..r.........r..r

Turn = 315.
  0123456789012345
0 r..rr.....r.r...
1 .......r........
2 ...r....r.......
3 ................
4 .....rr.........
5 ................
6 .r....rr...r....

Turn = 330.
  0123456789012345
0 .rrr........r..r
1 ...r............
2 ................
3 rrr.............
4 .r..............
5 r...............
6 r.............rr

Turn = 345.
  0123456789012345
0 .r....r........r
1 .r.......r......
2 r.........r.....
3 ..........r.....
4 ............r...
5 ............r...
6 ....r......rrr..

Turn = 360.
  0123456789012345
0 ............r.rr
1 .............r..
2 ................
3 .......r........
4 ..r....r.......r
5 .......r.......r
6 rr......r....r..

Turn = 375.
  0123456789012345
0 .r...r......r.r.
1 r..............r
2 ................
3 r...............
4 .....r..........
5 .r....r....r....
6 ..rr...r........

Turn = 390.
  0123456789012345
0 r.r........r..rr
1 r...........rr..
2 ...........rrr..
3 ..............r.
4 ................
5 ......r.........
6 ............r...

Turn = 405.
  0123456789012345
0 ..rr....r....r..
1 .............r.r
2 .........r......
3 ................
4 r.......r.......
5 .....r..........
6 .r.r....rr......

Turn = 420.
  0123456789012345
0 ..r.r.rr.r......
1 rr..............
2 r.r.............
3 ...r............
4 ......r........r
5 ................
6 ......r.....r...

Turn = 435.
  0123456789012345
0 .r.r...r........
1 rr.............r
2 ...rr...........
3 .........r.....r
4 ................
5 ................
6 ....r....r..r..r

*** Darwin 10x11 ***
Turn = 0.
  01234567890
0 rtr.......t
1 .........f.
2 ...........
3 ...r.h.....
4 ...........
5 ...........
6 ...........
7 ...........
8 ...........
9 ...........

Turn = 3.
  01234567890
0 .tt.......t
1 .........f.
2 ...........
3 r.h........
4 ...........
5 ...........
6 ...r.......
7 ...........
8 ...........
9 ...........

Turn = 6.
  01234567890
0 .tt.......t
1 .........f.
2 ...........
3 h..........
4 ...........
5 ...........
6 r..........
7 ...........
8 ...........
9 ...r.......

Turn = 9.
  01234567890
0 .tt.......t
1 .........f.
2 ...........
3 h..........
4 ...........
5 ...........
6 ...........
7 ...........
8 ...........
9 rr.........

*** Darwin 8x19 ***
Turn = 0.
  0123456789012345678
0 ...................
1 ...t........r......
2 ...r.....f..h...r..
3 ...................
4 .h....r............
5 ..........f........
6 ...................
7 ..............f.rr.

Turn = 7.
  0123456789012345678
0 ................r..
1 ...t.r............r
2 ...t.....f.........
3 ...................
4 ...............r...
5 ..........f........
6 ...................
7 .h.......r..rr.....

Turn = 14.
  0123456789012345678
0 ..........r..r.....
1 ...tt..............
2 ...t.....f.........
3 ............r......
4 ...................
5 ..........f........
6 ...................
7 .h....r......r....r

Turn = 21.
  0123456789012345678
0 ...t..r..r.........
1 ...tt.............r
2 ...t.....f.........
3 ...................
4 ...................
5 ..........f........
6 ...................
7 r.r...............r

Turn = 28.
  0123456789012345678
0 ...ttt.............
1 ...tt..............
2 .r.t.....f........r
3 ..................r
4 ...................
5 ..........f........
6 ...................
7 ...r...............

Turn = 35.
  0123456789012345678
0 .r.ttt.............
1 ...tt..............
2 ...t.....f.........
3 ...................
4 ...................
5 ..........f........
6 ...................
7 ..........r.....r.r

Turn = 42.
  0123456789012345678
0 ...rrt.............
1 ...rr..............
2 ..rr.....f.........
3 ...................
4 .............r.....
5 ..........f........
6 ...................
7 ...........rr......

Turn = 49.
  0123456789012345678
0 rr.............r...
1 ...................
2 .........f.........
3 r..................
4 ...................
5 ..........f........
6 ....rr.............
7 ..rrrr.............

Turn = 56.
  0123456789012345678
0 ..rr...r........r..
1 ....rr.............
2 .........f.........
3 ...................
4 .r.................
5 r.........f........
6 ...................
7 ..r.r..............

Turn = 63.
  0123456789012345678
0 r.........r........
1 ...................
2 ..r......f.rr......
3 r..................
4 ...................
5 ...r......f........
6 ...................
7 ....r....r.r.......

Turn = 70.
  0123456789012345678
0 .................r.
1 ...................
2 .........f.........
3 ...................
4 ...................
5 ..........f........
6 ...................
7 rrr....r..rr.r..r.r

Turn = 77.
  0123456789012345678
0 .r.........r..r....
1 ..................r
2 .........f.......r.
3 ..........r........
4 r..................
5 .......r...........
6 ...................
7 ........r...r.....r

Turn = 84.
  0123456789012345678
0 .......rr........r.
1 r..................
2 .........f.........
3 .................r.
4 ............r....rr
5 r..................
6 ...................
7 ...............rr..

Turn = 91.
  0123456789012345678
0 ..r...........rr..r
1 ..................r
2 .........f.........
3 ...................
4 ....r..............
5 ...................
6 r..................
7 .........rr...rr...

Turn = 98.
  0123456789012345678
0 .........r...r.r...
1 ...........r.......
2 .........f.........
3 ...................
4 r..........r.......
5 ...................
6 ....rr.............
7 ...r...rr..........

Turn = 105.
  0123456789012345678
0 ..r.rrr.r..........
1 ....r..............
2 .........f.........
3 .r.................
4 ..................r
5 ...................
6 .rrr...............
7 ...................

Turn = 112.
  0123456789012345678
0 .rrr...............
1 .rr.r..............
2 r........f.........
3 ...................
4 r..................
5 ...................
6 .....rr............
7 ................r..

Turn = 119.
  0123456789012345678
0 r..r......r........
1 ...........r.......
2 .........f.........
3 ...................
4 r..................
5 r..................
6 .r.r...............
7 rr.......r.........

Turn = 126.
  0123456789012345678
0 .......r..r......r.
1 ..................r
2 .........f.........
3 .r.................
4 ......r............
5 r..................
6 r.........r........
7 r.r................

Turn = 133.
  0123456789012345678
0 r.............rr...
1 r...............r..
2 .r.......f.........
3 r..................
4 .............r.....
5 .......r...........
6 .................r.
7 ..................r

Turn = 140.
  0123456789012345678
0 .......r.r.........
1 ..................r
2 .....r..rf........r
3 ......r............
4 ...................
5 ..............r....
6 ...............r...
7 ...............rr..

Turn = 147.
  0123456789012345678
0 ....r...r..........
1 .....r.............
2 ..............r...r
3 .............r.....
4 ...................
5 .........r........r
6 .........r.........
7 ........r......r..r

Turn = 154.
  0123456789012345678
0 .rr...............r
1 ...................
2 r..................
3 ..................r
4 ..................r
5 ...............r...
6 ..r............r...
7 .r......r...r......

Turn = 161.
  0123456789012345678
0 ......r.r...r......
1 ................r.r
2 ...................
3 ...................
4 r..................
5 ...r...............
6 ...r....r..........
7 .r...r............r

Turn = 168.
  0123456789012345678
0 ..r......r.........
1 ...................
2 r.....r...rr.......
3 ...................
4 ..........r........
5 ..........r........
6 ...................
7 r..r.......r......r

Turn = 175.
  0123456789012345678
0 ..r................
1 ..................r
2 .r....r.r..........
3 .....rr............
4 ....r..............
5 .................r.
6 ...................
7 .....rr.....r......

Turn = 182.
  0123456789012345678
0 .....r...r...r.....
1 ...................
2 r....r.........r...
3 r..................
4 ...................
5 .........r.........
6 ...................
7 ........r....r...rr

Turn = 189.
  0123456789012345678
0 ....r....r..r......
1 .................r.
2 ...................
3 .................r.
4 ...........r....r..
5 ............r...r..
6 ..................r
7 r..............r...

Turn = 196.
  0123456789012345678
0 ...........r....rrr
1 ...................
2 ...................
3 ..........r....rr..
4 .........r........r
5 ...................
6 ...................
7 ....r.........r.r..

Turn = 203.
  0123456789012345678
0 ............rr....r
1 ...................
2 ................r..
3 ...r...............
4 ..r................
5 .................r.
6 ...............r.r.
7 ...........r....r.r

Turn = 210.
  0123456789012345678
0 r....rr........r...
1 ...................
2 .................r.
3 ...................
4 ...................
5 ...........r.......
6 ...........r...r..r
7 r.............r.r..

Turn = 217.
  0123456789012345678
0 rr.............r..r
1 ............r......
2 ...................
3 ...................
4 ...................
5 r...r.............r
6 ....r..............
7 .......r.....r...r.

Turn = 224.
  0123456789012345678
0 r.......r........r.
1 .....r..........r..
2 ...................
3 r..................
4 r..................
5 ................r..
6 r..................
7 ........r.r.r......

Turn = 231.
  0123456789012345678
0 r..r........rr.....
1 r........r.........
2 ...................
3 .....r.............
4 .r.................
5 ...................
6 ...................
7 .r.r.r......r......

Turn = 238.
  0123456789012345678
0 ......r..rr........
1 ..r................
2 ...................
3 ............r......
4 ..r................
5 .r...........r.....
6 r....r.............
7 r....r.............

Turn = 245.
  0123456789012345678
0 .r...........r.r.r.
1 ..r................
2 ...................
3 ..r...............r
4 ...................
5 r..................
6 ......r.....r......
7 r................r.

Turn = 252.
  0123456789012345678
0 .................r.
1 ..................r
2 .....r.r...........
3 ...................
4 ...................
5 ..................r
6 r............r.....
7 r....r........r..rr

Turn = 259.
  0123456789012345678
0 ...................
1 r..................
2 ............r.r....
3 ...................
4 ...................
5 .........rr.....r.r
6 ......r..........r.
7 ...........r....rr.

Turn = 266.
  0123456789012345678
0 .....r...rr.....rr.
1 ...................
2 ...............r...
3 ..................r
4 ................r..
5 .........r.........
6 .............r.....
7 ....r............r.

Turn = 273.
  0123456789012345678
0 ...........rr......
1 ...................
2 ........r.........r
3 ...................
4 ...................
5 r.r.............r..
6 .................r.
7 .........rrr...r...

Turn = 280.
  0123456789012345678
0 r..............r..r
1 ...................
2 .r.................
3 ........r..........
4 ..........r...r.r..
5 .................r.
6 ...................
7 .r..............r.r

Turn = 287.
  0123456789012345678
0 ........r.......r..
1 .....r..........r..
2 ...................
3 .r................r
4 ................rr.
5 .................r.
6 ..................r
7 r.......r..........

Turn = 294.
  0123456789012345678
0 .r.......r.......r.
1 ............r......
2 ..................r
3 ...................
4 r.........r........
5 ..r................
6 ...................
7 ..............rrr.r

Turn = 301.
  0123456789012345678
0 ...rr.....r........
1 r.................r
2 ..................r
3 ...................
4 ...r..........r....
5 .........r.........
6 ...................
7 ................rrr

Turn = 308.
  0123456789012345678
0 .........r.........
1 ............r...r.r
2 ..................r
3 ........r..........
4 .......r...........
5 ................r..
6 ...................
7 rr.r.............r.

Turn = 315.
  0123456789012345678
0 ...............r...
1 rr...r.......r.....
2 ............r.r....
3 .r.................
4 r..................
5 ...................
6 ...................
7 r.........r......r.

Turn = 322.
  0123456789012345678
0 rr...............r.
1 ...................
2 r..r.r.............
3 ..................r
4 ...r...............
5 ...................
6 ...................
7 r..r......r....r...

Turn = 329.
  0123456789012345678
0 ...rr.........r....
1 ...................
2 ...................
3 ...................
4 ..........r.......r
5 rr.................
6 ..r.r..............
7 ...rr...........r..

Turn = 336.
  0123456789012345678
0 rr....r.rr.........
1 ..................r
2 ...rr..............
3 ...................
4 .................r.
5 ...................
6 .........r.r.......
7 .........r.........

Turn = 343.
  0123456789012345678
0 .rrr...............
1 ...................
2 r..................
3 ..............r....
4 ...r..........r....
5 ........r..........
6 ................r.r
7 ..r.....r..........

Turn = 350.
  0123456789012345678
0 ........r.........r
1 .................r.
2 ...................
3 .......r...........
4 r.r....r...........
5 r..................
6 ...r...............
7 rr............r....

Turn = 357.
  0123456789012345678
0 ..............r....
1 ....r........rr....
2 ...................
3 r.r................
4 ..r................
5 r.................r
6 ...r...............
7 r.....r............

Turn = 364.
  0123456789012345678
0 r..r...r..........r
1 .r.................
2 r..................
3 ...r...............
4 ...................
5 ....r..............
6 ...................
7 r...........rrr....

*** Darwin 16x11 ***
Turn = 0.
  01234567890
0 ...........
1 .......tr..
2 ...........
3 ..h........
4 t..........
5 ...........
6 ...........
7 .h.........
8 ..r........
9 .fr........
0 ...........
1 ...........
2 ...........
3 ...........
4 ...........
5 ........h..

Turn = 120.
  01234567890
0 r.........r
1 ...........
2 ..........r
3 ...........
4 ...........
5 ...........
6 ........r..
7 ...........
8 ...........
9 ...........
0 ...........
1 ...........
2 ..........r
3 .......r...
4 .r.....r...
5 ..r........

Turn = 240.
  01234567890
0 ..........r
1 ....r......
2 ...........
3 ...........
4 ....r......
5 ..........r
6 ....r.rr...
7 ...........
8 ...........
9 ...........
0 r..........
1 ........r..
2 ...........
3 ...........
4 ...........
5 ...........

Turn = 360.
  01234567890
0 r..........
1 ...........
2 ...........
3 ...........
4 ...........
5 ...........
6 ...........
7 r.r........
8 ..........r
9 ...........
0 ...........
1 ...........
2 ...........
3 ...........
4 .......r...
5 ....r..rr.r

Turn = 480.
  01234567890
0 ....r....r.
1 ...........
2 ...........
3 ...........
4 ...........
5 ...........
6 ...........
7 ...........
8 ..........r
9 .........rr
0 ....rr.....
1 ....r......
2 ...r.......
3 ...........
4 ...........
5 ...........

Turn = 600.
  01234567890
0 .........r.
1 .........r.
2 ...........
3 ...........
4 ...........
5 ...........
6 ...........
7 ...........
8 .......r...
9 ....r.r....
0 ...r.......
1 .........rr
2 ...........
3 ...........
4 ....r......
5 ...........

Turn = 720.
  01234567890
0 r..rr....r.
1 ...........
2 ...........
3 ...........
4 ...........
5 ...........
6 ...........
7 ..........r
8 ..........r
9 ...........
0 ..........r
1 r..........
2 ...........
3 ...........
4 ...........
5 ...r.......

*** Darwin 8x20 ***
Turn = 0.
  01234567890123456789
0 ....t..t......t.....
1 ....................
2 .......h........h...
3 ...................r
4 ..r........f........
5 ....................
6 .....r...........hh.
7 ....................

Turn = 1.
  01234567890123456789
0 ....t..t......t.....
1 .......h........h...
2 ....................
3 ..................r.
4 ...........f........
5 ..r..r...........h..
6 ....................
7 ..................h.

Turn = 2.
  01234567890123456789
0 ....t..t......t.h...
1 .......h............
2 ....................
3 .................r..
4 .....r.....f.....h..
5 ....................
6 ..r.................
7 ..................h.

Turn = 3.
  01234567890123456789
0 ....t..t......t.h...
1 .......h............
2 ....................
3 .....r..........rh..
4 ...........f........
5 ....................
6 ....................
7 ..r...............h.

Turn = 4.
  01234567890123456789
0 ....t..t......t.h...
1 .......h............
2 .....r...........h..
3 ...............r....
4 ...........f........
5 ....................
6 ....................
7 ..r...............h.

Turn = 5.
  01234567890123456789
0 ....t..t......t.h...
1 .....r.t.........h..
2 ....................
3 ..............r.....
4 ...........f........
5 ....................
6 ....................
7 .r................h.

Turn = 6.
  01234567890123456789
0 ....tr.t......t.hh..
1 .......t............
2 ....................
3 .............r......
4 ...........f........
5 ....................
6 ....................
7 r.................h.

Turn = 7.
  01234567890123456789
0 ....tr.t......t.hh..
1 .......t............
2 ....................
3 ............r.......
4 ...........f........
5 ....................
6 ....................
7 r.................h.

Turn = 8.
  01234567890123456789
0 ....rr.t......t.hh..
1 .......t............
2 ....................
3 ...........r........
4 ...........f........
5 ....................
6 r...................
7 ..................h.

Turn = 9.
  01234567890123456789
0 ....rr.t......t.hh..
1 .......t............
2 ....................
3 ..........r.........
4 ...........f........
5 r...................
6 ....................
7 ..................h.

Turn = 10.
  01234567890123456789
0 .....r.t......t.hh..
1 ....r..t............
2 ....................
3 .........r..........
4 r..........f........
5 ....................
6 ....................
7 ..................h.

Turn = 11.
  01234567890123456789
0 ......rt......t.hh..
1 .......t............
2 ....r...............
3 r.......r...........
4 ...........f........
5 ....................
6 ....................
7 ..................h.

Turn = 12.
  01234567890123456789
0 ......rr......t.hh..
1 .......t............
2 r...................
3 ....r..r............
4 ...........f........
5 ....................
6 ....................
7 ..................h.

Turn = 13.
  01234567890123456789
0 ......rt......t.hh..
1 r......t............
2 ....................
3 ......r.............
4 ....r......f........
5 ....................
6 ....................
7 ..................h.

Turn = 14.
  01234567890123456789
0 r.....rt......t.hh..
1 .......t............
2 ....................
3 .....r..............
4 ...........f........
5 ....r...............
6 ....................
7 ..................h.

Turn = 15.
  01234567890123456789
0 r.....rr......t.hh..
1 .......t............
2 ....................
3 ....r...............
4 ...........f........
5 ....................
6 ....r...............
7 ..................h.

Turn = 16.
  01234567890123456789
0 r.....rr......t.hh..
1 .......t............
2 ....................
3 ...r................
4 ...........f........
5 ....................
6 ....................
7 ....r.............h.

Turn = 17.
  01234567890123456789
0 ........r.....t.hh..
1 r.....rt............
2 ....................
3 ..r.................
4 ...........f........
5 ....................
6 ....................
7 ....r.............h.

Turn = 18.
  01234567890123456789
0 .........r....t.hh..
1 .......t............
2 r.....r.............
3 .r..................
4 ...........f........
5 ....................
6 ....................
7 .....r............h.

Turn = 19.
  01234567890123456789
0 ..........r...t.hh..
1 .......t............
2 ....................
3 rr....r.............
4 ...........f........
5 ....................
6 ....................
7 ......r...........h.

Turn = 20.
  01234567890123456789
0 ...........r..t.hh..
1 .......t............
2 ....................
3 ....................
4 rr....r....f........
5 ....................
6 ....................
7 .......r..........h.

Turn = 21.
  01234567890123456789
0 ............r.t.hh..
1 .......t............
2 ....................
3 ....................
4 ...........f........
5 rr....r.............
6 ....................
7 ........r.........h.

Turn = 22.
  01234567890123456789
0 .............rt.hh..
1 .......t............
2 ....................
3 ....................
4 ...........f........
5 ....................
6 rr....r.............
7 .........r........h.

*** Darwin 15x8 ***
Turn = 0.
  01234567
0 .t......
1 ........
2 ........
3 ........
4 ........
5 .....t..
6 ........
7 ........
8 ........
9 ........
0 ........
1 r.f.....
2 ........
3 .....f..
4 ........

Turn = 187.
  01234567
0 tt......
1 ........
2 ........
3 ........
4 ........
5 .....t..
6 ........
7 ........
8 ........
9 ........
0 ........
1 ..f.....
2 ........
3 .....f..
4 ........

Turn = 374.
  01234567
0 tt......
1 ........
2 ........
3 ........
4 ........
5 .....t..
6 ........
7 ........
8 ........
9 ........
0 ........
1 ..f.....
2 ........
3 .....f..
4 ........

Turn = 561.
  01234567
0 tt......
1 ........
2 ........
3 ........
4 ........
5 .....t..
6 ........
7 ........
8 ........
9 ........
0 ........
1 ..f.....
2 ........
3 .....f..
4 ........

Turn = 748.
  01234567
0 tt......
1 ........
2 ........
3 ........
4 ........
5 .....t..
6 ........
7 ........
8 ........
9 ........
0 ........
1 ..f.....
2 ........
3 .....f..
4 ........

Turn = 935.
  01234567
0 tt......
1 ........
2 ........
3 ........
4 ........
5 .....t..
6 ........
7 ........
8 ........
9 ........
0 ........
1 ..f.....
2 ........
3 .....f..
4 ........

*** Darwin 19x5 ***
Turn = 0.
  01234
0 ...r.
1 .....
2 .....
3 .....
4 ..t..
5 tf...
6 .....
7 .....
8 ....h
9 .....
0 .....
1 .....
2 .....
3 ...rh
4 .....
5 ....r
6 t....
7 ....t
8 .....

Turn = 73.
  01234
0 .....
1 .....
2 ....r
3 .....
4 r.tt.
5 ...t.
6 .....
7 .....
8 .....
9 .....
0 .....
1 .....
2 r....
3 .....
4 r....
5 .r...
6 .....
7 .....
8 ..r.r

Turn = 146.
  01234
0 .r...
1 r....
2 .....
3 .....
4 .....
5 .....
6 .....
7 .....
8 .....
9 .....
0 .....
1 .....
2 .....
3 ....r
4 ....r
5 .....
6 ..r.r
7 r...r
8 ..rr.

Turn = 219.
  01234
0 .....
1 .....
2 .....
3 ....r
4 r....
5 ....r
6 .....
7 .....
8 .....
9 ...rr
0 .....
1 .....
2 .....
3 .....
4 r....
5 .....
6 r...r
7 .r..r
8 .....

Turn = 292.
  01234
0 .....
1 r....
2 .....
3 .....
4 ....r
5 ...rr
6 .....
7 r....
8 .....
9 .....
0 .....
1 .....
2 .....
3 r....
4 r..r.
5 ....r
6 ....r
7 .....
8 .....

Turn = 365.
  01234
0 ..r..
1 r....
2 .....
3 r....
4 .....
5 r....
6 .....
7 .....
8 .....
9 r....
0 .....
1 .....
2 .....
3 .....
4 .....
5 .r...
6 r....
7 .r...
8 rr...

*** Darwin 20x9 ***
Turn = 0.
  012345678
0 h........
1 .........
2 .........
3 .........
4 .........
5 .........
6 .........
7 ......h..
8 .........
9 .........
0 .........
1 .........
2 .........
3 .........
4 t........
5 .........
6 .........
7 .........
8 .........
9 .........

Turn = 25.
  012345678
0 .........
1 .........
2 .........
3 .........
4 .........
5 .........
6 .........
7 ........h
8 .........
9 .........
0 .........
1 .........
2 .........
3 t........
4 t........
5 .........
6 .........
7 .........
8 .........
9 .........

Turn = 50.
  012345678
0 .........
1 .........
2 .........
3 .........
4 .........
5 .........
6 .........
7 ........h
8 .........
9 .........
0 .........
1 .........
2 .........
3 t........
4 t........
5 .........
6 .........
7 .........
8 .........
9 .........

Turn = 75.
  012345678
0 .........
1 .........
2 .........
3 .........
4 .........
5 .........
6 .........
7 ........h
8 .........
9 .........
0 .........
1 .........
2 .........
3 t........
4 t........
5 .........
6 .........
7 .........
8 .........
9 .........

Turn = 100.
  012345678
0 .........
1 .........
2 .........
3 .........
4 .........
5 .........
6 .........
7 ........h
8 .........
9 .........
0 .........
1 .........
2 .........
3 t........
4 t........
5 .........
6 .........
7 .........
8 .........
9 .........

Turn = 125.
  012345678
0 .........
1 .........
2 .........
3 .........
4 .........
5 .........
6 .........
7 ........h
8 .........
9 .........
0 .........
1 .........
2 .........
3 t........
4 t........
5 .........
6 .........
7 .........
8 .........
9 .........

Turn = 150.
  012345678
0 .........
1 .........
2 .........
3 .........
4 .........
5 .........
6 .........
7 ........h
8 .........
9 .........
0 .........
1 .........
2 .........
3 t........
4 t........
5 .........
6 .........
7 .........
8 .........
9 .........

Turn = 175.
  012345678
0 .........
1 .........
2 .........
3 .........
4 .........
5 .........
6 .........
7 ........h
8 .........
9 .........
0 .........
1 .........
2 .........
3 t........
4 t........
5 .........
6 .........
7 .........
8 .........
9 .........

Turn = 200.
  012345678
0 .........
1 .........
2 .........
3 .........
4 .........
5 .........
6 .........
7 ........h
8 .........
9 .........
0 .........
1 .........
2 .........
3 t........
4 t........
5 .........
6 .........
7 .........
8 .........
9 .........

Turn = 225.
  012345678
0 .........
1 .........
2 .........
3 .........
4 .........
5 .........
6 .........
7 ........h
8 .........
9 .........
0 .........
1 .........
2 .........
3 t........
4 t........
5 .........
6 .........
7 .........
8 .........
9 .........

Turn = 250.
  012345678
0 .........
1 .........
2 .........
3 .........
4 .........
5 .........
6 .........
7 ........h
8 .........
9 .........
0 .........
1 .........
2 .........
3 t........
4 t........
5 .........
6 .........
7 .........
8 .........
9 .........

Turn = 275.
  012345678
0 .........
1 .........
2 .........
3 .........
4 .........
5 .........
6 .........
7 ........h
8 .........
9 .........
0 .........
1 .........
2 .........
3 t........
4 t........
5 .........
6 .........
7 .........
8 .........
9 .........

Turn = 300.
  012345678
0 .........
1 .........
2 .........
3 .........
4 .........
5 .........
6 .........
7 ........h
8 .........
9 .........
0 .........
1 .........
2 .........
3 t........
4 t........
5 .........
6 .........
7 .........
8 .........
9 .........

*** Darwin 11x6 ***
Turn = 0.
  012345
0 h.....
1 f.....
2 ......
3 .h....
4 ....r.
5 ....t.
6 ......
7 r.....
8 ......
9 ......
0 ...r..

Turn = 170.
  012345
0 ..r.rr
1 ....r.
2 ......
3 ......
4 ......
5 ......
6 ..r...
7 .r....
8 ......
9 ......
0 .....r

Turn = 340.
  012345
0 ......
1 .....r
2 ......
3 ......
4 .....r
5 ......
6 ....r.
7 r...r.
8 ..r...
9 ...r..
0 ......

Turn = 510.
  012345
0 ....rr
1 ......
2 ......
3 ....r.
4 ......
5 r.....
6 ......
7 ......
8 ......
9 ..r...
0 ..r..r

Turn = 680.
  012345
0 r.....
1 r..r..
2 ....rr
3 .....r
4 ......
5 ......
6 ......
7 ......
8 ......
9 ......
0 ..r...
