*** Darwin 13x14 ***
Turn = 0.
  01234567890123
0 ..............
1 ..............
2 ..............
3 ..f...........
4 ...........t..
5 ..............
6 ..............
7 ..............
8 ..............
9 ..............
0 ....h.........
1 ..t......t....
2 ..............

*** Darwin 19x7 ***
Turn = 0.
  0123456
0 .......
1 ..f....
2 .......
3 .......
4 .......
5 .......
6 .......
7 .......
8 t......
9 .......
0 .......
1 .......
2 .......
3 .......
4 .......
5 .......
6 .......
7 .......
8 ...f...

Turn = 6.
  0123456
0 .......
1 ..f....
2 .......
3 .......
4 .......
5 .......
6 .......
7 .......
8 t......
9 .......
0 .......
1 .......
2 .......
3 .......
4 .......
5 .......
6 .......
7 .......
8 ...f...

Turn = 12.
  0123456
0 .......
1 ..f....
2 .......
3 .......
4 .......
5 .......
6 .......
7 .......
8 t......
9 .......
0 .......
1 .......
2 .......
3 .......
4 .......
5 .......
6 .......
7 .......
8 ...f...

*** Darwin 6x2 ***
Turn = 0.
  01
0 ..
1 ..
2 ..
3 ..
4 ..
5 .r

Turn = 1.
  01
0 ..
1 ..
2 ..
3 ..
4 ..
5 .r

Turn = 2.
  01
0 ..
1 ..
2 ..
3 ..
4 ..
5 r.

Turn = 3.
  01
0 ..
1 ..
2 ..
3 ..
4 ..
5 r.

Turn = 4.
  01
0 ..
1 ..
2 ..
3 ..
4 ..
5 r.

Turn = 5.
  01
0 ..
1 ..
2 ..
3 ..
4 ..
5 r.

Turn = 6.
  01
0 ..
1 ..
2 ..
3 ..
4 r.
5 ..

Turn = 7.
  01
0 ..
1 ..
2 ..
3 r.
4 ..
5 ..

Turn = 8.
  01
0 ..
1 ..
2 r.
3 ..
4 ..
5 ..

Turn = 9.
  01
0 ..
1 r.
2 ..
3 ..
4 ..
5 ..

Turn = 10.
  01
0 r.
1 ..
2 ..
3 ..
4 ..
5 ..

Turn = 11.
  01
0 r.
1 ..
2 ..
3 ..
4 ..
5 ..

Turn = 12.
  01
0 .r
1 ..
2 ..
3 ..
4 ..
5 ..

Turn = 13.
  01
0 .r
1 ..
2 ..
3 ..
4 ..
5 ..

Turn = 14.
  01
0 ..
1 .r
2 ..
3 ..
4 ..
5 ..

Turn = 15.
  01
0 ..
1 ..
2 .r
3 ..
4 ..
5 ..

Turn = 16.
  01
0 ..
1 ..
2 ..
3 .r
4 ..
5 ..

Turn = 17.
  01
0 ..
1 ..
2 ..
3 ..
4 .r
5 ..

Turn = 18.
  01
0 ..
1 ..
2 ..
3 ..
4 ..
5 .r

Turn = 19.
  01
0 ..
1 ..
2 ..
3 ..
4 ..
5 .r

Turn = 20.
  01
0 ..
1 ..
2 ..
3 ..
4 ..
5 .r

*** Darwin 1x19 ***
Turn = 0.
  0123456789012345678
0 .tf.h..ft.rrhhtht..

Turn = 8.
  0123456789012345678
0 .tt...rrr.rrrtttt..

Turn = 16.
  0123456789012345678
0 .trrrrrr...r.rrrr..

*** Darwin 15x7 ***
Turn = 0.
  0123456
0 .......
1 .......
2 .r.....
3 .......
4 ...h...
5 ....r..
6 .......
7 ...t...
8 ....t..
9 .....t.
0 .......
1 .......
2 ..tf...
3 .......
4 .......

Turn = 4.
  0123456
0 r......
1 .......
2 .......
3 .......
4 .......
5 .......
6 ...t...
7 ...tt..
8 ....t..
9 .....t.
0 .......
1 .......
2 ..tt...
3 .......
4 .......

Turn = 8.
  0123456
0 .r.....
1 .......
2 .......
3 .......
4 .......
5 .......
6 ...t...
7 ...tt..
8 ....t..
9 .....t.
0 .......
1 .......
2 ..tt...
3 .......
4 .......

Turn = 12.
  0123456
0 .....r.
1 .......
2 .......
3 .......
4 .......
5 .......
6 ...t...
7 ...tt..
8 ....t..
9 .....t.
0 .......
1 .......
2 ..tt...
3 .......
4 .......

*** Darwin 10x7 ***
Turn = 0.
  0123456
0 .......
1 .......
2 ..r...t
3 .......
4 .......
5 .......
6 .......
7 .......
8 ...h...
9 .......

Turn = 1.
  0123456
0 .......
1 .......
2 .r....t
3 .......
4 .......
5 .......
6 .......
7 .......
8 ....h..
9 .......

Turn = 2.
  0123456
0 .......
1 .......
2 r.....t
3 .......
4 .......
5 .......
6 .......
7 .......
8 .....h.
9 .......

Turn = 3.
  0123456
0 .......
1 .......
2 r.....t
3 .......
4 .......
5 .......
6 .......
7 .......
8 ......h
9 .......

Turn = 4.
  0123456
0 .......
1 r......
2 ......t
3 .......
4 .......
5 .......
6 .......
7 .......
8 ......h
9 .......

Turn = 5.
  0123456
0 r......
1 .......
2 ......t
3 .......
4 .......
5 .......
6 .......
7 .......
8 ......h
9 .......

Turn = 6.
  0123456
0 r......
1 .......
2 ......t
3 .......
4 .......
5 .......
6 .......
7 .......
8 ......h
9 .......

Turn = 7.
  0123456
0 r......
1 .......
2 ......t
3 .......
4 .......
5 .......
6 .......
7 .......
8 ......h
9 .......

Turn = 8.
  0123456
0 r......
1 .......
2 ......t
3 .......
4 .......
5 .......
6 .......
7 .......
8 ......h
9 .......

Turn = 9.
  0123456
0 .r.....
1 .......
2 ......t
3 .......
4 .......
5 .......
6 .......
7 .......
8 ......h
9 .......

Turn = 10.
  0123456
0 ..r....
1 .......
2 ......t
3 .......
4 .......
5 .......
6 .......
7 .......
8 ......h
9 .......

Turn = 11.
  0123456
0 ...r...
1 .......
2 ......t
3 .......
4 .......
5 .......
6 .......
7 .......
8 ......h
9 .......

Turn = 12.
  0123456
0 ....r..
1 .......
2 ......t
3 .......
4 .......
5 .......
6 .......
7 .......
8 ......h
9 .......

Turn = 13.
  0123456
0 .....r.
1 .......
2 ......t
3 .......
4 .......
5 .......
6 .......
7 .......
8 ......h
9 .......

Turn = 14.
  0123456
0 ......r
1 .......
2 ......t
3 .......
4 .......
5 .......
6 .......
7 .......
8 ......h
9 .......

Turn = 15.
  0123456
0 ......r
1 .......
2 ......t
3 .......
4 .......
5 .......
6 .......
7 .......
8 ......h
9 .......

Turn = 16.
  0123456
0 .......
1 ......r
2 ......t
3 .......
4 .......
5 .......
6 .......
7 .......
8 ......h
9 .......

Turn = 17.
  0123456
0 .......
1 ......r
2 .......
3 ......r
4 .......
5 .......
6 .......
7 .......
8 ......h
9 .......

*** Darwin 3x20 ***
Turn = 0.
  01234567890123456789
0 .hh.f...............
1 .............t.....t
2 ....hr...........h..

Turn = 4.
  01234567890123456789
0 ....f.r..........h..
1 .............t.....t
2 .hh.h...............

Turn = 8.
  01234567890123456789
0 ....f.....r......h..
1 .............t.....t
2 .hh.h...............

*** Darwin 5x9 ***
Turn = 0.
  012345678
0 .........
1 .........
2 .........
3 .........
4 ....t....

Turn = 8.
  012345678
0 .........
1 .........
2 .........
3 .........
4 ....t....

*** Darwin 10x19 ***
Turn = 0.
  0123456789012345678
0 ............r......
1 ...................
2 ...................
3 ....f..............
4 ...........ft.....r
5 .r................h
6 ...............r...
7 ...........r...r...
8 ...............h...
9 .........r.........

Turn = 2.
  0123456789012345678
0 ..........r........
1 ...................
2 ...................
3 ....f..............
4 ...........ft......
5 ...r............r.r
6 ..............r....
7 .........r....r....
8 .............h.....
9 .......r...........

Turn = 4.
  0123456789012345678
0 ........r..........
1 ...................
2 ...................
3 ....f..............
4 ...........tt......
5 .....r........r....
6 ............r......
7 .......r....r.....r
8 ...........h.......
9 .....r.............

Turn = 6.
  0123456789012345678
0 ......r............
1 ...................
2 ...................
3 ....f..............
4 ...........tt......
5 .......r....r......
6 ..........r........
7 .....r....r........
8 .........h.........
9 ...r..............r

Turn = 8.
  0123456789012345678
0 ....r..............
1 ...................
2 ...................
3 ....f..............
4 ...........tt......
5 .........rr........
6 ........r..........
7 ...r....r..........
8 .......h...........
9 .r...............r.

Turn = 10.
  0123456789012345678
0 ..r................
1 ...................
2 ...................
3 ....f..............
4 ..........rtt......
5 ...................
6 ......r..r.........
7 .r....r............
8 .....h.............
9 r..............r...

Turn = 12.
  0123456789012345678
0 r..................
1 ...................
2 ..........r........
3 ....f..............
4 ...........tt......
5 ...................
6 ....r..............
7 r...r..............
8 r..h.....r.........
9 .............r.....

Turn = 14.
  0123456789012345678
0 r.........r........
1 ...................
2 ...................
3 ....f..............
4 ...........tt......
5 ...................
6 ..r................
7 r.r................
8 .h.................
9 r........r.r.......

Turn = 16.
  0123456789012345678
0 ..r........r.......
1 ...................
2 ...................
3 ....f..............
4 ...........tt......
5 ...................
6 r..................
7 r..................
8 rh.................
9 .r.....r.r.........

Turn = 18.
  0123456789012345678
0 ....r........r.....
1 ...................
2 ...................
3 ....f..............
4 ...........tt......
5 ...................
6 r..................
7 r..................
8 r..................
9 .r.r.r.r...........

*** Darwin 1x9 ***
Turn = 0.
  012345678
0 tf.f.h.ht

Turn = 6.
  012345678
0 tt.fh..tt

*** Darwin 19x11 ***
Turn = 0.
  01234567890
0 ....t......
1 ..f........
2 ...........
3 ...........
4 ...........
5 ...........
6 t..........
7 ...........
8 ...........
9 .......f...
0 ...........
1 ...........
2 ........f..
3 ...........
4 ...h.......
5 ...........
6 ...........
7 ...........
8 ...........

*** Darwin 20x19 ***
Turn = 0.
  0123456789012345678
0 ..t..........f.....
1 ...................
2 ...................
3 ................t.f
4 ...................
5 .....r.............
6 ...................
7 ...................
8 ...................
9 ..f................
0 ...................
1 ...................
2 ...................
3 ....r..............
4 .........r.........
5 .f.................
6 .............r.....
7 ...................
8 ...................
9 .................th

Turn = 2.
  0123456789012345678
0 ..t..........f.....
1 ...................
2 ...................
3 .....r..........t.f
4 ...................
5 ...................
6 ...................
7 ...................
8 ...................
9 ..f................
0 ...................
1 ...................
2 ...................
3 ...................
4 ...................
5 .f..r..............
6 .........r.r.......
7 ..................h
8 ...................
9 .................t.

Turn = 4.
  0123456789012345678
0 ..t..........f.....
1 .....r.............
2 ...................
3 ................t.f
4 ...................
5 ...................
6 ...................
7 ...................
8 ...................
9 ..f................
0 ...................
1 ...................
2 ...................
3 ...................
4 ...................
5 .f................h
6 .........r.........
7 ....r..............
8 .........r.........
9 .................t.

Turn = 6.
  0123456789012345678
0 ..t..r.......f.....
1 ...................
2 ...................
3 ................t.f
4 ...................
5 ...................
6 ...................
7 ...................
8 ...................
9 ..f................
0 ...................
1 ...................
2 ...................
3 ..................h
4 ...................
5 .f.................
6 .......r...........
7 ...................
8 ...................
9 ....r....r.......t.

*** Darwin 4x10 ***
Turn = 0.
  0123456789
0 h.........
1 .r.....h..
2 ..r.....f.
3 ....f.....

*** Darwin 14x12 ***
Turn = 0.
  012345678901
0 ............
1 .f..........
2 ............
3 ............
4 .....r......
5 ....h.......
6 ............
7 ............
8 ..........rh
9 ............
0 ............
1 ............
2 ............
3 ............

*** Darwin 17x20 ***
Turn = 0.
  01234567890123456789
0 ..........f.........
1 ....................
2 ....................
3 ....................
4 ....................
5 ....................
6 ....................
7 ....................
8 ....................
9 ....................
0 ....................
1 ....................
2 ....................
3 ....................
4 ....................
5 ....................
6 ....................

Turn = 4.
  01234567890123456789
0 ..........f.........
1 ....................
2 ....................
3 ....................
4 ....................
5 ....................
6 ....................
7 ....................
8 ....................
9 ....................
0 ....................
1 ....................
2 ....................
3 ....................
4 ....................
5 ....................
6 ....................

Turn = 8.
  01234567890123456789
0 ..........f.........
1 ....................
2 ....................
3 ....................
4 ....................
5 ....................
6 ....................
7 ....................
8 ....................
9 ....................
0 ....................
1 ....................
2 ....................
3 ....................
4 ....................
5 ....................
6 ....................

*** Darwin 9x16 ***
Turn = 0.
  0123456789012345
0 ................
1 ................
2 ...........t....
3 ................
4 ......t......f..
5 ............h...
6 .......t....f...
7 ..r.............
8 ................

Turn = 1.
  0123456789012345
0 ................
1 ................
2 ...........t....
3 ................
4 ......t.....hf..
5 ................
6 .......t....f...
7 ................
8 ..r.............

Turn = 2.
  0123456789012345
0 ................
1 ................
2 ...........t....
3 ............h...
4 ......t......f..
5 ................
6 .......t....f...
7 ................
8 ..r.............

Turn = 3.
  0123456789012345
0 ................
1 ................
2 ...........th...
3 ................
4 ......t......f..
5 ................
6 .......t....f...
7 ................
8 .r..............

Turn = 4.
  0123456789012345
0 ................
1 ............h...
2 ...........t....
3 ................
4 ......t......f..
5 ................
6 .......t....f...
7 ................
8 r...............

Turn = 5.
  0123456789012345
0 ............h...
1 ................
2 ...........t....
3 ................
4 ......t......f..
5 ................
6 .......t....f...
7 ................
8 r...............

Turn = 6.
  0123456789012345
0 ............h...
1 ................
2 ...........t....
3 ................
4 ......t......f..
5 ................
6 .......t....f...
7 ................
8 r...............

Turn = 7.
  0123456789012345
0 ............h...
1 ................
2 ...........t....
3 ................
4 ......t......f..
5 ................
6 .......t....f...
7 ................
8 r...............

Turn = 8.
  0123456789012345
0 ............h...
1 ................
2 ...........t....
3 ................
4 ......t......f..
5 ................
6 .......t....f...
7 r...............
8 ................

Turn = 9.
  0123456789012345
0 ............h...
1 ................
2 ...........t....
3 ................
4 ......t......f..
5 ................
6 r......t....f...
7 ................
8 ................

Turn = 10.
  0123456789012345
0 ............h...
1 ................
2 ...........t....
3 ................
4 ......t......f..
5 r...............
6 .......t....f...
7 ................
8 ................

Turn = 11.
  0123456789012345
0 ............h...
1 ................
2 ...........t....
3 ................
4 r.....t......f..
5 ................
6 .......t....f...
7 ................
8 ................

Turn = 12.
  0123456789012345
0 ............h...
1 ................
2 ...........t....
3 r...............
4 ......t......f..
5 ................
6 .......t....f...
7 ................
8 ................

Turn = 13.
  0123456789012345
0 ............h...
1 ................
2 r..........t....
3 ................
4 ......t......f..
5 ................
6 .......t....f...
7 ................
8 ................

Turn = 14.
  0123456789012345
0 ............h...
1 r...............
2 ...........t....
3 ................
4 ......t......f..
5 ................
6 .......t....f...
7 ................
8 ................

Turn = 15.
  0123456789012345
0 r...........h...
1 ................
2 ...........t....
3 ................
4 ......t......f..
5 ................
6 .......t....f...
7 ................
8 ................

Turn = 16.
  0123456789012345
0 r...........h...
1 ................
2 ...........t....
3 ................
4 ......t......f..
5 ................
6 .......t....f...
7 ................
8 ................

Turn = 17.
  0123456789012345
0 .r..........h...
1 ................
2 ...........t....
3 ................
4 ......t......f..
5 ................
6 .......t....f...
7 ................
8 ................

Turn = 18.
  0123456789012345
0 ..r.........h...
1 ................
2 ...........t....
3 ................
4 ......t......f..
5 ................
6 .......t....f...
7 ................
8 ................

Turn = 19.
  0123456789012345
0 ...r........h...
1 ................
2 ...........t....
3 ................
4 ......t......f..
5 ................
6 .......t....f...
7 ................
8 ................

*** Darwin 20x13 ***
Turn = 0.
  0123456789012
0 .............
1 .............
2 h............
3 .............
4 .............
5 .............
6 .............
7 .............
8 ............h
9 .............
0 .............
1 .............
2 .............
3 .............
4 .h...........
5 .............
6 .......h.....
7 .............
8 .............
9 .............

*** Darwin 17x6 ***
Turn = 0.
  012345
0 ......
1 ......
2 ......
3 ......
4 ......
5 ......
6 ......
7 ......
8 r.....
9 ......
0 ......
1 ......
2 ......
3 ......
4 .t....
5 ......
6 ......

*** Darwin 14x6 ***
Turn = 0.
  012345
0 ...r..
1 ......
2 ......
3 r...t.
4 .h.f..
5 .....h
6 h.....
7 ......
8 ......
9 ......
0 .r.h..
1 .rt.f.
2 ......
3 ....f.

Turn = 8.
  012345
0 .h....
1 ......
2 ......
3 ...ttr
4 ...t..
5 h.....
6 r.....
7 r.....
8 ..r...
9 ......
0 ......
1 .tt.f.
2 ......
3 ....f.

*** Darwin 9x10 ***
Turn = 0.
  0123456789
0 ..........
1 r.........
2 ..........
3 ..........
4 ..........
5 ..t...t...
6 ..........
7 ..........
8 ...t......

Turn = 1.
  0123456789
0 ..........
1 .r........
2 ..........
3 ..........
4 ..........
5 ..t...t...
6 ..........
7 ..........
8 ...t......

Turn = 2.
  0123456789
0 ..........
1 ..r.......
2 ..........
3 ..........
4 ..........
5 ..t...t...
6 ..........
7 ..........
8 ...t......

Turn = 3.
  0123456789
0 ..........
1 ...r......
2 ..........
3 ..........
4 ..........
5 ..t...t...
6 ..........
7 ..........
8 ...t......

Turn = 4.
  0123456789
0 ..........
1 ....r.....
2 ..........
3 ..........
4 ..........
5 ..t...t...
6 ..........
7 ..........
8 ...t......

Turn = 5.
  0123456789
0 ..........
1 .....r....
2 ..........
3 ..........
4 ..........
5 ..t...t...
6 ..........
7 ..........
8 ...t......

Turn = 6.
  0123456789
0 ..........
1 ......r...
2 ..........
3 ..........
4 ..........
5 ..t...t...
6 ..........
7 ..........
8 ...t......

Turn = 7.
  0123456789
0 ..........
1 .......r..
2 ..........
3 ..........
4 ..........
5 ..t...t...
6 ..........
7 ..........
8 ...t......

Turn = 8.
  0123456789
0 ..........
1 ........r.
2 ..........
3 ..........
4 ..........
5 ..t...t...
6 ..........
7 ..........
8 ...t......

Turn = 9.
  0123456789
0 ..........
1 .........r
2 ..........
3 ..........
4 ..........
5 ..t...t...
6 ..........
7 ..........
8 ...t......

Turn = 10.
  0123456789
0 ..........
1 .........r
2 ..........
3 ..........
4 ..........
5 ..t...t...
6 ..........
7 ..........
8 ...t......

Turn = 11.
  0123456789
0 ..........
1 ..........
2 .........r
3 ..........
4 ..........
5 ..t...t...
6 ..........
7 ..........
8 ...t......

Turn = 12.
  0123456789
0 ..........
1 ..........
2 ..........
3 .........r
4 ..........
5 ..t...t...
6 ..........
7 ..........
8 ...t......

Turn = 13.
  0123456789
0 ..........
1 ..........
2 ..........
3 ..........
4 .........r
5 ..t...t...
6 ..........
7 ..........
8 ...t......

*** Darwin 17x18 ***
Turn = 0.
  012345678901234567
0 ..................
1 ..................
2 ..................
3 ..................
4 ..................
5 ..................
6 ..................
7 ......t...........
8 ..................
9 ..................
0 .................r
1 ..................
2 ..................
3 ..................
4 ..................
5 ..................
6 ..................

Turn = 8.
  012345678901234567
0 ..................
1 ..................
2 ..................
3 ..................
4 ..................
5 ..................
6 ..................
7 ......t...........
8 ..................
9 ..................
0 ..................
1 ..................
2 ..................
3 ..................
4 ..................
5 ..................
6 ................r.

*** Darwin 18x9 ***
Turn = 0.
  012345678
0 .........
1 ....t....
2 .........
3 ...r...r.
4 .........
5 ...r.....
6 ..f......
7 .........
8 .........
9 ....f...h
0 .........
1 .........
2 .........
3 .........
4 ..f......
5 .........
6 ..r...f..
7 ...hf....

Turn = 9.
  012345678
0 ........r
1 ....t....
2 .........
3 .........
4 .........
5 .........
6 ..f......
7 .........
8 ........r
9 ....f...h
0 .........
1 r........
2 r......r.
3 .........
4 .........
5 .........
6 ......f..
7 ...hf....

*** Darwin 4x6 ***
Turn = 0.
  012345
0 h...r.
1 t...t.
2 ..t..r
3 th..t.

*** Darwin 2x4 ***
Turn = 0.
  0123
0 ..r.
1 f...

Turn = 3.
  0123
0 ....
1 fr..

Turn = 6.
  0123
0 .r..
1 r...
