*** Darwin 13x20 ***
Turn = 0.
  01234567890123456789
0 ...........f........
1 ....................
2 ....................
3 ....................
4 ....................
5 ....................
6 ....................
7 ....................
8 ................r...
9 ...........r........
0 ....................
1 ....................
2 ............h.......

Turn = 172.
  01234567890123456789
0 ........r..........r
1 ....................
2 ....................
3 r...................
4 ....................
5 ....................
6 ....................
7 ....................
8 ....................
9 ....................
0 ....................
1 ....................
2 r...................

Turn = 344.
  01234567890123456789
0 ........r.r.........
1 ....................
2 ....................
3 ....................
4 ....................
5 ....................
6 ...................r
7 ....................
8 ....................
9 ...................r
0 ....................
1 ....................
2 ....................

Turn = 516.
  01234567890123456789
0 .r..................
1 ....................
2 ....................
3 ....................
4 ....................
5 ....................
6 ....................
7 ....................
8 ....................
9 ....................
0 ....................
1 .........r..........
2 ..........r.r.......

Turn = 688.
  01234567890123456789
0 ...................r
1 ....................
2 ....................
3 ....................
4 ....................
5 ....................
6 ....................
7 ....................
8 ....................
9 ....................
0 ....................
1 ...........r........
2 ........r..r........

Turn = 860.
  01234567890123456789
0 .....r..............
1 ....................
2 ........r...........
3 ....................
4 ....................
5 ....................
6 ....................
7 ....................
8 ....................
9 ....................
0 ....................
1 r...................
2 r...................

*** Darwin 7x24 ***
Turn = 0.
  012345678901234567890123
0 ...r...............h....
1 ........................
2 ..................t.....
3 ........................
4 ..r...................f.
5 ...h....................
6 ................t.......

*** Darwin 18x14 ***
Turn = 0.
  01234567890123
0 ..............
1 ..............
2 ..............
3 ..............
4 ..............
5 ..............
6 ....h.........
7 ..............
8 ..............
9 ..............
0 .......r......
1 ....r.........
2 ..............
3 ..............
4 ............t.
5 ..............
6 ..............
7 ..............

Turn = 196.
  01234567890123
0 ....r.........
1 ..............
2 ..............
3 ..............
4 ..............
5 ..............
6 ..............
7 ..............
8 ..............
9 .............r
0 .............r
1 ..............
2 ..............
3 ..............
4 ............t.
5 ..............
6 ..............
7 ..............

*** Darwin 15x16 ***
Turn = 0.
  0123456789012345
0 ...........f....
1 ................
2 ................
3 ................
4 ................
5 ................
6 r............f..
7 ................
8 .........f......
9 ................
0 ................
1 ................
2 .r.......r......
3 ................
4 ................

Turn = 197.
  0123456789012345
0 ..........rr....
1 .......r.r......
2 ................
3 ................
4 ................
5 ................
6 .............f..
7 ................
8 ................
9 ................
0 ................
1 ................
2 ................
3 ................
4 ..........r.....

Turn = 394.
  0123456789012345
0 ...............r
1 ...............r
2 ................
3 ................
4 ................
5 ................
6 ................
7 ................
8 ................
9 ................
0 ................
1 r...............
2 ................
3 ..r.............
4 ..r.r...........

Turn = 591.
  0123456789012345
0 ................
1 ......r.........
2 r...............
3 ................
4 ................
5 ................
6 ................
7 ................
8 r...............
9 ..rrr...........
0 ................
1 ................
2 ................
3 ................
4 ................

Turn = 788.
  0123456789012345
0 ................
1 ................
2 r...............
3 r...............
4 ..............r.
5 ................
6 ................
7 ................
8 ................
9 ................
0 ................
1 ................
2 ...............r
3 ................
4 ......r........r

*** Darwin 24x23 ***
Turn = 0.
  01234567890123456789012
0 ................h......
1 .......................
2 .......................
3 .......................
4 .......................
5 .......................
6 .......................
7 .......................
8 ...............h.......
9 ....r..................
0 .......................
1 .......h...............
2 .......................
3 .......................
4 .......................
5 .......................
6 .......................
7 .....................t.
8 .......................
9 .......................
0 ...........t......f....
1 .............r.........
2 ....................h..
3 .......................

*** Darwin 12x22 ***
Turn = 0.
  0123456789012345678901
0 ......................
1 ............h.........
2 .......r..............
3 ......................
4 ......................
5 .................t....
6 ..h...................
7 ....................r.
8 ..............r.......
9 ......................
0 ....t.t...............
1 .............r.......t

Turn = 199.
  0123456789012345678901
0 ......................
1 ......................
2 .....................r
3 .....................r
4 ......................
5 ...........r.....t....
6 .................t....
7 ......................
8 ......................
9 ......................
0 ....tt................
1 .....tt...........r...

Turn = 398.
  0123456789012345678901
0 ..................r...
1 ......................
2 ......................
3 ......................
4 ......................
5 .................t....
6 .................t....
7 .................t....
8 ......................
9 ....tt................
0 ....tt................
1 ...rr.................

Turn = 597.
  0123456789012345678901
0 ......................
1 ......................
2 ......................
3 ......................
4 ......................
5 .................t....
6 .................t....
7 .................t....
8 ......................
9 ....tt................
0 ....rt................
1 ...rtt................

Turn = 796.
  0123456789012345678901
0 ......................
1 ......................
2 ......................
3 ......................
4 ......................
5 .................t....
6 .................t....
7 .................t....
8 ......................
9 ....tt................
0 ....rt................
1 ...rtt................

*** Darwin 15x11 ***
Turn = 0.
  01234567890
0 ........t..
1 ...........
2 ...........
3 ...........
4 ........h..
5 ...........
6 ....h......
7 ...........
8 ....f......
9 ......t.h..
0 ...........
1 ........h..
2 ..t.h......
3 ...........
4 ...........

Turn = 184.
  01234567890
0 ....h...t..
1 ...........
2 ...........
3 ...........
4 ..........h
5 ...........
6 ...........
7 ...........
8 ....f......
9 ......t...h
0 ...........
1 h..........
2 ..t........
3 ...........
4 ....h......

Turn = 368.
  01234567890
0 ....h...t..
1 ...........
2 ...........
3 ...........
4 ..........h
5 ...........
6 ...........
7 ...........
8 ....f......
9 ......t...h
0 ...........
1 h..........
2 ..t........
3 ...........
4 ....h......

Turn = 552.
  01234567890
0 ....h...t..
1 ...........
2 ...........
3 ...........
4 ..........h
5 ...........
6 ...........
7 ...........
8 ....f......
9 ......t...h
0 ...........
1 h..........
2 ..t........
3 ...........
4 ....h......

Turn = 736.
  01234567890
0 ....h...t..
1 ...........
2 ...........
3 ...........
4 ..........h
5 ...........
6 ...........
7 ...........
8 ....f......
9 ......t...h
0 ...........
1 h..........
2 ..t........
3 ...........
4 ....h......

Turn = 920.
  01234567890
0 ....h...t..
1 ...........
2 ...........
3 ...........
4 ..........h
5 ...........
6 ...........
7 ...........
8 ....f......
9 ......t...h
0 ...........
1 h..........
2 ..t........
3 ...........
4 ....h......

*** Darwin 14x7 ***
Turn = 0.
  0123456
0 .tr....
1 .......
2 .....t.
3 .......
4 ...f...
5 ..t....
6 .......
7 ......h
8 .......
9 .......
0 ..f..t.
1 .......
2 ..h....
3 .......

Turn = 194.
  0123456
0 .tt....
1 .......
2 .....t.
3 .......
4 ...f...
5 ..t....
6 .......
7 .......
8 .......
9 .......
0 ..f..t.
1 .......
2 .......
3 ..h...h

Turn = 388.
  0123456
0 .tt....
1 .......
2 .....t.
3 .......
4 ...f...
5 ..t....
6 .......
7 .......
8 .......
9 .......
0 ..f..t.
1 .......
2 .......
3 ..h...h

Turn = 582.
  0123456
0 .tt....
1 .......
2 .....t.
3 .......
4 ...f...
5 ..t....
6 .......
7 .......
8 .......
9 .......
0 ..f..t.
1 .......
2 .......
3 ..h...h

*** Darwin 20x24 ***
Turn = 0.
  012345678901234567890123
0 ........................
1 ........................
2 ........................
3 ........................
4 ........................
5 ........................
6 .t.....h.............r..
7 ....t...................
8 ........................
9 ........................
0 ........................
1 ........................
2 .............t........f.
3 ........................
4 ........................
5 ........................
6 ........................
7 ........................
8 ....................r...
9 ........................

Turn = 183.
  012345678901234567890123
0 ........................
1 ........................
2 ........................
3 ........................
4 ........................
5 .......................r
6 .tt.....................
7 ....t...................
8 ........................
9 ........................
0 ........................
1 ........................
2 .............t........f.
3 ........................
4 ........................
5 ........................
6 ........................
7 ........................
8 ........................
9 ....r...................

Turn = 366.
  012345678901234567890123
0 ........................
1 ........................
2 ........................
3 ........................
4 ........................
5 ........................
6 .tt.....................
7 ....t...................
8 ........................
9 ........................
0 ........................
1 ........................
2 .............t........f.
3 ........................
4 ........................
5 ........................
6 ........................
7 ........................
8 ..........r.............
9 ...........r............

Turn = 549.
  012345678901234567890123
0 ........................
1 ........................
2 ........................
3 ........................
4 ........................
5 ........................
6 .tt.....................
7 ....t...................
8 r.......................
9 ........................
0 ........................
1 ........................
2 .............t........f.
3 ........................
4 ........................
5 ........................
6 r.......................
7 ........................
8 ........................
9 ........................

Turn = 732.
  012345678901234567890123
0 ....r...................
1 ........................
2 ........................
3 r.......................
4 ........................
5 ........................
6 .tt.....................
7 ....t...................
8 ........................
9 ........................
0 ........................
1 ........................
2 .............t........f.
3 ........................
4 ........................
5 ........................
6 ........................
7 ........................
8 ........................
9 ........................

Turn = 915.
  012345678901234567890123
0 .......r................
1 ........................
2 ........................
3 ........................
4 ........................
5 ...........r............
6 .tt.....................
7 .t..t...................
8 ........................
9 ........................
0 ........................
1 ........................
2 ........................
3 ........................
4 ........................
5 ........................
6 ........................
7 ........................
8 .......................r
9 ........................

*** Darwin 9x10 ***
Turn = 0.
  0123456789
0 ..........
1 ...h......
2 t.......h.
3 ..........
4 ..........
5 ..........
6 ........t.
7 ..........
8 ..........

Turn = 169.
  0123456789
0 ..........
1 t.........
2 tt........
3 ..........
4 ..........
5 ..........
6 ........t.
7 ..........
8 ..........

Turn = 338.
  0123456789
0 ..........
1 t.........
2 tt........
3 ..........
4 ..........
5 ..........
6 ........t.
7 ..........
8 ..........

Turn = 507.
  0123456789
0 ..........
1 t.........
2 tt........
3 ..........
4 ..........
5 ..........
6 ........t.
7 ..........
8 ..........

Turn = 676.
  0123456789
0 ..........
1 t.........
2 tt........
3 ..........
4 ..........
5 ..........
6 ........t.
7 ..........
8 ..........

*** Darwin 15x9 ***
Turn = 0.
  012345678
0 r........
1 .....h...
2 .........
3 .........
4 ....h....
5 .........
6 ....f....
7 .........
8 .........
9 .f..r....
0 ..r.....f
1 .........
2 .........
3 .........
4 .hf......

Turn = 179.
  012345678
0 r.r.r....
1 .........
2 ........r
3 .r.......
4 .........
5 .........
6 ......r..
7 .......r.
8 .........
9 .........
0 .......r.
1 .........
2 .........
3 r........
4 ........r

*** Darwin 5x21 ***
Turn = 0.
  012345678901234567890
0 ...............h.....
1 .....................
2 ..................t..
3 .....................
4 h........t...h.......

Turn = 158.
  012345678901234567890
0 h....................
1 .....................
2 ..................t..
3 .....................
4 h........t...h.......

Turn = 316.
  012345678901234567890
0 h....................
1 .....................
2 ..................t..
3 .....................
4 h........t...h.......

Turn = 474.
  012345678901234567890
0 h....................
1 .....................
2 ..................t..
3 .....................
4 h........t...h.......

Turn = 632.
  012345678901234567890
0 h....................
1 .....................
2 ..................t..
3 .....................
4 h........t...h.......

Turn = 790.
  012345678901234567890
0 h....................
1 .....................
2 ..................t..
3 .....................
4 h........t...h.......

Turn = 948.
  012345678901234567890
0 h....................
1 .....................
2 ..................t..
3 .....................
4 h........t...h.......

*** Darwin 14x13 ***
Turn = 0.
  0123456789012
0 .............
1 .............
2 .t...........
3 ..f..........
4 ...........t.
5 .............
6 .h...........
7 .............
8 ....r........
9 .............
0 .............
1 ...f.........
2 .....r.......
3 r.....h......

Turn = 165.
  0123456789012
0 r.......r...r
1 ...r..r..r...
2 .............
3 .............
4 .......r.....
5 .............
6 .............
7 .............
8 .............
9 ............r
0 .............
1 .............
2 .............
3 r............

Turn = 330.
  0123456789012
0 rr...........
1 ...........r.
2 .............
3 .............
4 .............
5 .............
6 .....r.......
7 ...........r.
8 .............
9 ............r
0 .............
1 ......r......
2 .......r.....
3 ..r..........

Turn = 495.
  0123456789012
0 .....r..r....
1 .............
2 .............
3 ......r......
4 .............
5 .............
6 .........r..r
7 .............
8 .............
9 .............
0 ............r
1 r..........r.
2 .............
3 ..r..........

Turn = 660.
  0123456789012
0 .............
1 .............
2 .............
3 .r...........
4 .............
5 .............
6 ....r........
7 .....rr......
8 .............
9 ...........r.
0 ............r
1 .............
2 r...........r
3 .r...........

*** Darwin 25x7 ***
Turn = 0.
  0123456
0 ....f..
1 .t.....
2 .......
3 .......
4 .......
5 .......
6 .......
7 .......
8 .......
9 .......
0 ....t..
1 .......
2 .....t.
3 ..r....
4 .......
5 ....f..
6 .......
7 ......f
8 .......
9 .......
0 .......
1 ......r
2 .......
3 .......
4 ...h...

Turn = 180.
  0123456
0 .......
1 .......
2 .......
3 r......
4 .......
5 .......
6 .......
7 .......
8 .......
9 .......
0 ....t..
1 ...r...
2 .....tt
3 .....tt
4 .......
5 ....f..
6 .......
7 .......
8 .......
9 .......
0 ...r...
1 .......
2 .......
3 .......
4 .......

Turn = 360.
  0123456
0 .......
1 .......
2 .......
3 .......
4 .......
5 .......
6 .......
7 .......
8 .......
9 .......
0 ....t.t
1 ......t
2 .....tt
3 .....tt
4 ......t
5 ....f..
6 .......
7 .......
8 .......
9 .......
0 .......
1 .......
2 .......
3 .......
4 .......

Turn = 540.
  0123456
0 .......
1 .......
2 .......
3 .......
4 .......
5 .......
6 .......
7 .......
8 .......
9 .......
0 ....t.t
1 ......t
2 .....tt
3 .....tt
4 ......t
5 ....f..
6 .......
7 .......
8 .......
9 .......
0 .......
1 .......
2 .......
3 .......
4 .......

*** Darwin 6x18 ***
Turn = 0.
  012345678901234567
0 ..................
1 ..................
2 ..................
3 .....r.....f......
4 ........r.........
5 ............r.....

Turn = 168.
  012345678901234567
0 ..................
1 ..................
2 ..................
3 ...........f......
4 ................r.
5 ......r..........r

Turn = 336.
  012345678901234567
0 .r................
1 ..................
2 ..................
3 ......r...........
4 ..................
5 ......r..........r

*** Darwin 6x7 ***
Turn = 0.
  0123456
0 .......
1 ..rh...
2 ..h....
3 .......
4 .h...h.
5 .......

Turn = 187.
  0123456
0 ....r..
1 r...r..
2 .......
3 ......r
4 .......
5 ......r

Turn = 374.
  0123456
0 rr.....
1 .......
2 .......
3 .....r.
4 .....r.
5 ......r

*** Darwin 17x9 ***
Turn = 0.
  012345678
0 .........
1 .........
2 .........
3 .........
4 .........
5 r..t.....
6 .....h...
7 ....t..r.
8 .........
9 .........
0 .........
1 .........
2 .........
3 .........
4 .....r...
5 .........
6 .........

Turn = 191.
  012345678
0 .........
1 .........
2 .........
3 .........
4 .........
5 .........
6 ...t....r
7 ...tt....
8 .........
9 ........r
0 .........
1 .........
2 .........
3 .........
4 .........
5 .........
6 ......r..

Turn = 382.
  012345678
0 .........
1 .........
2 .........
3 .........
4 .........
5 .........
6 ...t.....
7 ...ttt...
8 .........
9 .........
0 .........
1 .........
2 .........
3 .........
4 .........
5 .........
6 r......r.

*** Darwin 7x15 ***
Turn = 0.
  012345678901234
0 .........h.....
1 ......f........
2 ......r....rh..
3 ..r............
4 ...............
5 ...............
6 r..............

Turn = 164.
  012345678901234
0 ..rr......r...r
1 ...............
2 ...............
3 ...............
4 .....r.........
5 ..............r
6 .....r.........

Turn = 328.
  012345678901234
0 ....r...rr.....
1 ...............
2 ...............
3 ...............
4 ........r......
5 ..........r...r
6 ..........r....

*** Darwin 13x18 ***
Turn = 0.
  012345678901234567
0 .........r........
1 ..................
2 ..................
3 ..................
4 .f................
5 ..................
6 ...............h..
7 ..h...............
8 .t................
9 ..................
0 ..................
1 ..................
2 ............h.....

Turn = 198.
  012345678901234567
0 rr................
1 r.................
2 ..................
3 ..................
4 .f................
5 ..................
6 ..................
7 ..................
8 ..t...............
9 ..................
0 ..................
1 ..................
2 r.................

Turn = 396.
  012345678901234567
0 r..............r..
1 ..................
2 ..r.............r.
3 ..................
4 .................r
5 ..................
6 ..................
7 ..................
8 ..................
9 ..................
0 ..................
1 ..................
2 ......r...........

Turn = 594.
  012345678901234567
0 r...........r..r..
1 r.................
2 .................r
3 ..................
4 ..................
5 ..................
6 ..................
7 ..................
8 ..................
9 ..................
0 ..................
1 ..................
2 r.................

*** Darwin 11x25 ***
Turn = 0.
  0123456789012345678901234
0 ...............h.........
1 ..................t......
2 .........................
3 .........................
4 ...............t.......t.
5 r........................
6 .........................
7 ...f...................f.
8 ..h......................
9 .........................
0 .........................

Turn = 191.
  0123456789012345678901234
0 ..............r...t......
1 ..................t......
2 ..................t......
3 .........................
4 ...............t.......t.
5 .......................t.
6 .........................
7 ...f.....................
8 .........................
9 .........................
0 .........................

Turn = 382.
  0123456789012345678901234
0 .................tt......
1 ..................t......
2 ..................t......
3 .........................
4 ...............t.......t.
5 .......................t.
6 .........................
7 ...f.....................
8 .........................
9 .........................
0 .........................

Turn = 573.
  0123456789012345678901234
0 .................tt......
1 ..................t......
2 ..................t......
3 .........................
4 ...............t.......t.
5 .......................t.
6 .........................
7 ...f.....................
8 .........................
9 .........................
0 .........................

Turn = 764.
  0123456789012345678901234
0 .................tt......
1 ..................t......
2 ..................t......
3 .........................
4 ...............t.......t.
5 .......................t.
6 .........................
7 ...f.....................
8 .........................
9 .........................
0 .........................

*** Darwin 12x8 ***
Turn = 0.
  01234567
0 ........
1 .......h
2 ........
3 ........
4 ........
5 f.......
6 .f......
7 ...f....
8 ........
9 ......r.
0 ........
1 ......ff

Turn = 156.
  01234567
0 r.......
1 ........
2 ........
3 ........
4 ........
5 r.......
6 ........
7 ........
8 ........
9 r.......
0 rr...r..
1 .....r..

Turn = 312.
  01234567
0 ........
1 .......r
2 ........
3 ........
4 .......r
5 ........
6 ........
7 .......r
8 ........
9 rr......
0 ........
1 .....r.r

Turn = 468.
  01234567
0 .r......
1 ........
2 ........
3 ........
4 ........
5 r.......
6 ........
7 ........
8 rr......
9 .r......
0 ........
1 ......rr

Turn = 624.
  01234567
0 .rr.....
1 r......r
2 ..r.....
3 ........
4 ........
5 r.......
6 ........
7 ........
8 ........
9 ........
0 ........
1 .....r..
