20

13 2
5
r 1 1 n
t 12 1 w
h 8 1 e
t 2 0 s
f 12 1 n
81 31

5 10
17
f 2 3 w
t 2 6 w
t 0 7 n
t 3 2 e
h 2 8 n
t 2 6 w
r 0 3 n
h 1 0 e
r 2 3 n
h 4 7 w
t 4 8 e
f 3 1 n
r 4 0 e
f 1 7 s
t 3 5 e
f 2 2 s
h 3 5 w
212 199

14 5
20
h 1 1 n
h 9 0 n
t 0 4 e
f 4 0 s
f 1 3 e
f 12 4 w
h 8 3 n
t 5 1 n
f 11 4 e
f 10 3 e
t 1 4 w
t 11 0 w
h 9 1 w
f 7 4 e
h 3 3 e
r 9 3 n
r 6 2 n
r 10 0 s
f 7 3 n
r 11 0 w
65 11

17 14
3
f 10 1 w
r 12 7 e
r 3 1 n
354 55

8 8
23
r 2 1 w
t 1 4 s
f 0 1 s
f 5 0 s
t 3 2 e
f 4 3 e
f 5 1 w
t 3 4 n
r 3 0 e
f 5 6 w
t 2 7 e
f 5 6 e
f 3 2 w
t 0 1 s
t 3 7 n
r 1 3 e
h 7 3 e
h 6 6 n
t 6 1 e
t 6 7 e
r 2 0 e
h 7 6 e
r 3 1 w
955 47

12 9
2
t 3 3 w
r 3 7 e
1640 17

17 7
6
h 9 1 s
r 10 2 s
r 11 0 s
r 13 2 s
f 12 6 n
r 0 4 e
1936 125

16 1
3
r 7 0 e
t 7 0 n
r 9 0 n
836 111

8 3
15
r 7 0 w
t 4 2 s
t 2 0 n
f 7 2 n
f 3 0 w
t 0 0 e
t 7 0 e
t 0 0 n
r 5 2 w
r 0 0 e
r 1 0 s
t 5 2 n
r 0 0 w
h 7 2 s
h 7 1 e
1401 145

12 6
16
h 10 4 s
h 6 5 s
t 9 5 s
r 5 2 s
r 9 5 n
r 0 1 n
t 2 1 w
t 3 2 s
t 9 5 n
t 0 4 s
h 3 5 n
h 5 1 n
t 8 0 w
r 9 4 n
f 10 3 n
h 7 4 n
1814 155

17 18
17
t 4 4 e
f 2 10 s
h 2 16 s
h 3 3 e
f 11 6 n
r 15 14 s
r 6 6 n
f 3 6 n
f 7 5 s
h 12 12 n
t 7 11 w
f 15 4 s
h 2 13 n
h 5 10 w
f 7 8 w
f 10 17 s
r 14 10 w
1341 168

10 8
19
t 5 3 e
h 7 5 w
t 5 2 e
f 2 6 s
r 2 6 s
f 8 4 n
f 0 5 s
h 4 6 w
t 5 6 e
r 3 2 n
t 6 5 n
h 5 7 e
r 4 6 n
f 0 2 w
t 9 3 s
f 5 2 n
h 7 4 e
f 9 5 e
t 3 3 e
422 86

5 3
2
r 4 0 s
h 3 0 e
1670 52

20 6
3
h 4 2 w
h 2 5 w
f 0 2 n
1805 87

10 17
17
h 0 7 s
t 9 0 s
t 7 4 w
h 3 9 e
f 6 6 w
h 2 8 s
f 3 7 s
t 6 14 n
f 6 14 n
f 8 14 w
r 6 11 w
f 0 2 s
h 0 1 s
h 3 1 e
t 6 11 s
r 0 16 e
r 8 14 n
425 176

18 10
4
t 0 6 n
f 15 7 e
h 12 3 s
f 14 1 s
252 164

4 12
18
t 1 3 n
r 1 8 w
f 1 2 n
h 2 0 s
f 1 7 n
f 2 0 n
f 0 5 w
r 1 0 w
t 1 11 s
f 1 10 w
t 1 8 e
t 3 10 n
f 3 2 s
f 3 1 s
t 0 2 s
r 3 7 s
t 0 8 w
r 0 7 n
1469 47

15 12
3
r 8 1 n
t 14 0 s
h 13 8 n
278 47

1 10
22
t 0 2 s
h 0 4 s
f 0 7 w
h 0 5 w
r 0 9 s
r 0 2 w
r 0 7 e
f 0 6 w
t 0 0 w
h 0 1 n
t 0 6 n
h 0 5 e
t 0 2 e
f 0 0 s
f 0 9 e
t 0 3 n
r 0 3 n
f 0 7 e
f 0 5 e
f 0 3 e
r 0 3 w
t 0 2 w
680 29

13 18
1
r 0 6 n
1949 87
